<?xml version="1.0" encoding="utf-8"?>
<!-- Generator: Adobe Illustrator 18.0.0, SVG Export Plug-In . SVG Version: 6.00 Build 0)  -->
<!DOCTYPE svg PUBLIC "-//W3C//DTD SVG 1.1//EN" "http://www.w3.org/Graphics/SVG/1.1/DTD/svg11.dtd">
<svg version="1.1" id="Layer_1" xmlns="http://www.w3.org/2000/svg" xmlns:xlink="http://www.w3.org/1999/xlink" x="0px" y="0px"
	 viewBox="0 0 612 792" enable-background="new 0 0 612 792" xml:space="preserve">
<g id="flower" display="none">
	<g display="inline">
		
			<linearGradient id="SVGID_1_" gradientUnits="userSpaceOnUse" x1="68.6165" y1="741.5072" x2="114.7097" y2="661.6715" gradientTransform="matrix(3.8107 0 0 -3.8107 0 3149.0471)">
			<stop  offset="0" style="stop-color:#000000;stop-opacity:0.3"/>
			<stop  offset="0.6633" style="stop-color:#000000;stop-opacity:0"/>
		</linearGradient>
		<polygon fill="url(#SVGID_1_)" points="419.2,232.3 122.7,447.6 228.6,630.9 544.2,448.4 		"/>
	</g>
	<polygon display="inline" fill="#46A2D0" points="153.2,661 459.2,661 612,395.8 0,395.8 	"/>
	<polygon display="inline" fill="#215B6D" points="459.2,131 612,395.8 0,395.8 153.2,131 	"/>
	<polygon display="inline" fill="#876728" points="171.9,628.3 440.1,628.3 573.9,395.8 38.1,395.8 	"/>
	<polygon display="inline" fill="#6D5120" points="440.1,163.7 573.9,395.8 38.1,395.8 171.9,163.7 	"/>
	<path id="All_1_" display="inline" fill="#46A2D0" d="M236.3,483.5L236.3,483.5c1.1,72,69.7,117.8,69.7,117.8s69-45.7,69.7-117.8
		l0,0c68.6,21,133.4-30.1,133.4-30.1s-22.1-79.6-90.3-102.9l0,0c41.2-58.7,12.6-136,12.6-136s-82.7-3.4-125.8,54.1l0,0
		c-42.7-57.5-125.4-54.1-125.4-54.1s-28.6,77.4,12.6,136l0,0c-67.8,23.2-90.3,102.9-90.3,102.9S167.7,504.4,236.3,483.5z"/>
	<path display="inline" fill="#215B6D" d="M434.4,320c-19.1,16.8-51.1,1.5-75.8,25.9c23.2-3.4,43.4-1.1,60.6,4.6l0,0l0,0
		C426,340.6,431,330.3,434.4,320z"/>
	<path display="inline" fill="#215B6D" d="M162.7,366.1c25.2-2.7,42.3,29,76.6,24c-21-11.1-35.8-24.4-46.5-39.3l0,0l0,0
		C181.8,354.3,171.9,360,162.7,366.1z"/>
	<path display="inline" fill="#215B6D" d="M282,244.5c10.3,23.2-14.1,49.2,1.1,80.4c3.8-23.2,12.2-41.9,23.2-56.4l0,0l0,0
		C298.8,259,290.8,251,282,244.5z"/>
	<path display="inline" fill="#215B6D" d="M241.6,517c5.3-24.8,40.4-31.2,46.5-65.5c-16.8,16.8-34.3,26.7-51.8,32l0,0l0,0
		C236.3,495.3,238.6,506.3,241.6,517z"/>
	<path display="inline" fill="#215B6D" d="M409.3,488.4c-22.1-12.6-17.5-48-48-64.4c10.7,21.3,14.5,41.2,14.5,59.1l0,0l0,0
		C387.2,486.9,398.6,488.4,409.3,488.4z"/>
	<path display="inline" fill="#F9ED23" d="M361.6,369.1c0.4-13.3-5.7-26.7-17.1-35.1c-11.4-8.4-25.9-9.9-38.5-5.3
		c-12.6-4.6-27.1-3-38.5,5.3c-11.8,8.4-17.5,22.1-17.1,35.4c-7.6,10.3-10.3,24-6.1,37.3c4.2,13,14.5,22.5,26.3,26.7
		c7.2,11.4,20.2,19.4,35.1,19.4c14.5,0,27.1-7.2,34.3-18.3c13-3.8,23.6-13.3,27.8-27.1C372.7,393.9,369.6,379.4,361.6,369.1z"/>
	<circle id="Center_1_" display="inline" fill="#876728" cx="306" cy="385.5" r="34.7"/>
</g>
<g id="phone" display="none">
	<g display="inline">
		
			<linearGradient id="SVGID_2_" gradientUnits="userSpaceOnUse" x1="69.8329" y1="744.4147" x2="117.2666" y2="662.2572" gradientTransform="matrix(3.8107 0 0 -3.8107 0 3149.0471)">
			<stop  offset="0" style="stop-color:#000000;stop-opacity:0.3"/>
			<stop  offset="0.6633" style="stop-color:#000000;stop-opacity:0"/>
		</linearGradient>
		<polygon fill="url(#SVGID_2_)" points="406.6,231.2 211.9,542.5 254.2,616.1 535,453.7 		"/>
	</g>
	<rect x="211.9" y="240.3" display="inline" fill="#B1A28F" width="176.4" height="302.2"/>
	<path display="inline" fill="#EAE4DC" d="M384.1,202.6H231.3c-17.1,0-30.9,14.5-30.9,28.6v291.9c0,14.1,14.1,26.3,28.2,26.3h155.9
		c14.1,0,22.1-12.2,22.1-26.3V231.2C406.6,217.1,401.3,202.6,384.1,202.6z M306.8,534.5c-9.1,0-16.8-7.6-16.8-16.8
		c0-9.1,7.6-16.8,16.8-16.8c9.1,0,16.8,7.6,16.8,16.8C323.9,526.9,316.3,534.5,306.8,534.5z M388.3,483.8H219.1V243.4h169.6v240.5
		H388.3z"/>
</g>
<g id="finance">
	<circle fill="#46A2D0" cx="240.9" cy="424" r="208.3"/>
	
		<linearGradient id="SVGID_3_" gradientUnits="userSpaceOnUse" x1="63.1337" y1="715.049" x2="102.075" y2="647.6005" gradientTransform="matrix(3.8107 0 0 -3.8107 0 3149.0471)">
		<stop  offset="0" style="stop-color:#000000;stop-opacity:0.3"/>
		<stop  offset="0.6633" style="stop-color:#000000;stop-opacity:0"/>
	</linearGradient>
	<polygon fill="url(#SVGID_3_)" points="60,528.4 208.8,785.3 569.5,577 420.2,320.6 	"/>
	<path fill="#CE4746" d="M298.9,223.6l-58,200.4l203.6,45.9c3.2-14.8,5.3-30.1,5.3-45.9C449.3,328.6,386,248.9,298.9,223.6z"/>
	<path fill="#CCC247" d="M240.9,424l123.4,167.7c39.6-29.5,68.6-72.3,79.6-122.4L240.9,424z"/>
	<path fill="#5EBB4B" d="M240.9,632.3c46.4,0,89.1-15.3,123.4-40.6L240.9,424H32.6C32.6,539,126,632.3,240.9,632.3z"/>
</g>
</svg>
