<?xml version="1.0" encoding="utf-8"?>
<!-- Generator: Adobe Illustrator 18.0.0, SVG Export Plug-In . SVG Version: 6.00 Build 0)  -->
<!DOCTYPE svg PUBLIC "-//W3C//DTD SVG 1.1//EN" "http://www.w3.org/Graphics/SVG/1.1/DTD/svg11.dtd">
<svg version="1.1" id="Layer_1" xmlns="http://www.w3.org/2000/svg" xmlns:xlink="http://www.w3.org/1999/xlink" x="0px" y="0px"
	 viewBox="0 0 612 792" enable-background="new 0 0 612 792" xml:space="preserve">
<g id="flower" display="none">
	<g display="inline">
		
			<linearGradient id="SVGID_1_" gradientUnits="userSpaceOnUse" x1="68.6165" y1="741.5072" x2="114.7097" y2="661.6715" gradientTransform="matrix(3.8107 0 0 -3.8107 0 3149.0471)">
			<stop  offset="0" style="stop-color:#000000;stop-opacity:0.3"/>
			<stop  offset="0.6633" style="stop-color:#000000;stop-opacity:0"/>
		</linearGradient>
		<polygon fill="url(#SVGID_1_)" points="419.2,232.3 122.7,447.6 228.6,630.9 544.2,448.4 		"/>
	</g>
	<polygon display="inline" fill="#46A2D0" points="153.2,661 459.2,661 612,395.8 0,395.8 	"/>
	<polygon display="inline" fill="#215B6D" points="459.2,131 612,395.8 0,395.8 153.2,131 	"/>
	<polygon display="inline" fill="#876728" points="171.9,628.3 440.1,628.3 573.9,395.8 38.1,395.8 	"/>
	<polygon display="inline" fill="#6D5120" points="440.1,163.7 573.9,395.8 38.1,395.8 171.9,163.7 	"/>
	<path id="All_1_" display="inline" fill="#46A2D0" d="M236.3,483.5L236.3,483.5c1.1,72,69.7,117.8,69.7,117.8s69-45.7,69.7-117.8
		l0,0c68.6,21,133.4-30.1,133.4-30.1s-22.1-79.6-90.3-102.9l0,0c41.2-58.7,12.6-136,12.6-136s-82.7-3.4-125.8,54.1l0,0
		c-42.7-57.5-125.4-54.1-125.4-54.1s-28.6,77.4,12.6,136l0,0c-67.8,23.2-90.3,102.9-90.3,102.9S167.7,504.4,236.3,483.5z"/>
	<path display="inline" fill="#215B6D" d="M434.4,320c-19.1,16.8-51.1,1.5-75.8,25.9c23.2-3.4,43.4-1.1,60.6,4.6l0,0l0,0
		C426,340.6,431,330.3,434.4,320z"/>
	<path display="inline" fill="#215B6D" d="M162.7,366.1c25.2-2.7,42.3,29,76.6,24c-21-11.1-35.8-24.4-46.5-39.3l0,0l0,0
		C181.8,354.3,171.9,360,162.7,366.1z"/>
	<path display="inline" fill="#215B6D" d="M282,244.5c10.3,23.2-14.1,49.2,1.1,80.4c3.8-23.2,12.2-41.9,23.2-56.4l0,0l0,0
		C298.8,259,290.8,251,282,244.5z"/>
	<path display="inline" fill="#215B6D" d="M241.6,517c5.3-24.8,40.4-31.2,46.5-65.5c-16.8,16.8-34.3,26.7-51.8,32l0,0l0,0
		C236.3,495.3,238.6,506.3,241.6,517z"/>
	<path display="inline" fill="#215B6D" d="M409.3,488.4c-22.1-12.6-17.5-48-48-64.4c10.7,21.3,14.5,41.2,14.5,59.1l0,0l0,0
		C387.2,486.9,398.6,488.4,409.3,488.4z"/>
	<path display="inline" fill="#F9ED23" d="M361.6,369.1c0.4-13.3-5.7-26.7-17.1-35.1c-11.4-8.4-25.9-9.9-38.5-5.3
		c-12.6-4.6-27.1-3-38.5,5.3c-11.8,8.4-17.5,22.1-17.1,35.4c-7.6,10.3-10.3,24-6.1,37.3c4.2,13,14.5,22.5,26.3,26.7
		c7.2,11.4,20.2,19.4,35.1,19.4c14.5,0,27.1-7.2,34.3-18.3c13-3.8,23.6-13.3,27.8-27.1C372.7,393.9,369.6,379.4,361.6,369.1z"/>
	<circle id="Center_1_" display="inline" fill="#876728" cx="306" cy="385.5" r="34.7"/>
</g>
<linearGradient id="SVGID_2_" gradientUnits="userSpaceOnUse" x1="180.1561" y1="329.9604" x2="374.962" y2="667.3743">
	<stop  offset="0" style="stop-color:#000000;stop-opacity:0.1"/>
	<stop  offset="0.6633" style="stop-color:#000000;stop-opacity:0"/>
</linearGradient>
<polygon fill="url(#SVGID_2_)" points="584.3,545 390.8,208.4 126.8,472 61.6,608.4 164.4,789 "/>
<rect x="102.8" y="208.4" fill="#38352F" width="288" height="205.2"/>
<rect x="102.8" y="208.4" fill="#215B6D" width="288" height="205.2"/>
<rect x="115.6" y="221.2" fill="#89796D" width="262.3" height="173.2"/>
<polygon fill="#72655C" points="390.8,413.6 102.8,413.6 51.9,539.6 441.7,539.6 "/>
<rect x="102.8" y="413.6" fill="#215B6D" width="288" height="48.5"/>
<polygon fill="#89796D" points="384.1,426 109.4,426 102.8,462.1 390.8,462.1 "/>
<polygon fill="#215B6D" points="102.8,462.1 102.8,413.6 51.9,539.6 72.4,539.6 "/>
<polygon fill="#215B6D" points="441.7,539.6 390.8,413.6 390.8,462.1 421.1,539.6 "/>
<rect x="92.4" y="539.6" fill="#215B6D" width="47.9" height="16.1"/>
<rect x="353.3" y="539.6" fill="#215B6D" width="47.9" height="16.1"/>
<rect x="92.3" y="462.2" fill="#B18056" width="136.8" height="51.8"/>
<polygon fill="#E1CFC5" points="170.6,504.1 150.8,509.3 150.8,481 170.6,481 "/>
<polygon fill="#E1CFC5" points="170.6,504.1 150.8,509.3 150.8,481 170.6,481 "/>
<polyline fill="#CC9666" points="229.1,440 100.3,440 92.3,462.2 229.1,462.2 "/>
<polygon fill="#EFDFD4" points="170.6,462.2 150.8,462.2 155.1,440 174.9,440 "/>
<polygon fill="#E1CFC5" points="170.6,485.3 150.8,490.5 150.8,462.2 170.6,462.2 "/>
<polygon fill="#E1CFC5" points="311.2,495.5 334.1,501.5 334.1,468.9 311.2,468.9 "/>
<polygon fill="#E1CFC5" points="311.2,495.5 334.1,501.5 334.1,468.9 311.2,468.9 "/>
<polygon fill="#E1CFC5" points="311.2,495.5 334.1,501.5 334.1,468.9 311.2,468.9 "/>
<polyline fill="#CC9666" points="235.4,455.9 383.5,455.9 392.6,481.5 235.4,481.5 "/>
<rect x="235.4" y="481.5" fill="#B18056" width="157.3" height="53.9"/>
<polygon fill="#EFDFD4" points="302.6,481.5 325.4,481.5 320.5,455.9 297.6,455.9 "/>
<polygon fill="#E1CFC5" points="302.6,508 325.4,514 325.4,481.5 302.6,481.5 "/>
<g>
	<polyline fill="#CC9666" points="183,490.9 84.8,490.9 78.6,508.4 186.3,508.4 	"/>
	<rect x="78.6" y="508.4" fill="#B18056" width="107.7" height="36.9"/>
	<polygon fill="#EFDFD4" points="140.3,508.4 124.6,508.4 128,490.9 143.7,490.9 	"/>
	<polygon fill="#E1CFC5" points="140.3,526.6 124.6,530.7 124.6,508.4 140.3,508.4 	"/>
</g>
<g>
	<path fill="#46A1D0" d="M423.2,618.9H70.3c-10.2,0-18.4-8.3-18.4-18.4V545h389.8v55.4C441.7,610.7,433.4,618.9,423.2,618.9z"/>
	<path fill="#215B6D" d="M70.3,618.9h27.4l-45.8-45.8v27.4C51.9,610.7,60.1,618.9,70.3,618.9z"/>
	<path fill="#215B6D" d="M423.2,618.9h-27.4l45.8-45.8v27.4C441.7,610.7,433.4,618.9,423.2,618.9z"/>
	<path fill="#215B6D" d="M210.6,590.5c-4.1,0-7.4-3.3-7.4-7.4v-27.5h12.3v21c0,0.4,0.3,0.8,0.8,0.8h61.1c0.4,0,0.8-0.3,0.8-0.8v-21
		h12.3v27.5c0,4.1-3.3,7.4-7.4,7.4H210.6z"/>
	<rect x="51.9" y="539.6" fill="#215B6D" width="389.8" height="5.4"/>
</g>
</svg>
