<?xml version="1.0" encoding="utf-8"?>
<!-- Generator: Adobe Illustrator 18.0.0, SVG Export Plug-In . SVG Version: 6.00 Build 0)  -->
<!DOCTYPE svg PUBLIC "-//W3C//DTD SVG 1.1//EN" "http://www.w3.org/Graphics/SVG/1.1/DTD/svg11.dtd">
<svg version="1.1" xmlns="http://www.w3.org/2000/svg" xmlns:xlink="http://www.w3.org/1999/xlink" x="0px" y="0px"
	 viewBox="0 0 110.8 96.3" enable-background="new 0 0 110.8 96.3" xml:space="preserve">
<g id="Layer_1" display="none">
	<path display="inline" fill="#CCC4BA" d="M35.9,83c1.4,0.1,3.4,0.2,5.1,0.2h0c2.4,0,3.2-0.2,3.4-0.2c0.8-0.2,2.3-2.6,3.2-4.9
		l0.5-1.4l1.5,0.2l20.6,3l1.6,0.2v1.6c0,0.4,0.2,0.9,0.3,1.1c2.2-0.3,10.4-4.3,11.6-5.7c0.4-0.4,2.1-3.2,0.8-15.4
		c-0.7-7-4.7-15-11-16.7c-8.1-2.2-16.5-5.5-17.6-13.3c-0.3-2.4-2.6-6-4.4-9c-1.4-2.3-2.7-4.3-3.1-5.8c-0.7-2.4-4.9-4.5-8.9-4.5
		c-1.8,0-3.3,0.5-4.1,1.3l-0.6,2.1c0.2,2.3-1.2,6.7-2.4,10.2c-0.1,0.2-4,10.1-4,22.7c0,7.5,3.4,13.8,5.8,18.3c1.9,3.5,3.2,6,2.7,8.3
		C36.4,77.7,36,81,35.9,83z"/>
	<path display="inline" fill="#6D5120" d="M89.8,84.6L50.3,16.4c0,0,18.9,47.3,20.7,63l16.1,10L89.8,84.6z"/>
	<polygon display="inline" fill="#876728" points="83.1,0.4 27.7,0.4 0,48.4 27.7,96.3 83.1,96.3 110.8,48.4 	"/>
	<polygon display="inline" fill="#77582A" points="96.2,73.7 82.5,50.1 73.6,56.4 89.8,84.6 	"/>
	<polygon display="inline" fill="#6D5120" points="89.8,84.6 73.6,56.4 33.8,84.8 40.5,96.3 83.1,96.3 	"/>
	<path display="inline" fill="#CCC4BA" d="M30.7,25.5c0,0-4.1,10.1-4.1,23.3s9.5,22.3,8.6,26.1c-1,3.8-1.3,9.9-1.3,9.9
		s8.7,0.7,11.1,0c2.4-0.7,4.4-6.1,4.4-6.1l20.6,3c0,0,0,2.4,1.6,3c1.6,0.6,12-4.4,13.6-6.3c1.6-1.9,2.2-7.3,1.3-16.8
		c-0.8-7.9-5.4-16.5-12.4-18.4c-7-1.9-15.2-4.8-16.2-11.7c-0.6-4.7-6.7-11.9-7.6-15.1c-1.6-5.4-13.1-8-16.5-3.6l-0.9,2.9
		C33.5,17.5,30.7,25.5,30.7,25.5"/>
	<path display="inline" fill="#BCAE97" d="M32.9,19.1c0-3.5,3.6-6.2,7.9-5.5c3.4,0.5,6.2,2.8,6.2,6.3s-2.8,4.9-6.2,4.9
		C37.4,24.8,32.9,22.6,32.9,19.1z"/>
	
		<ellipse transform="matrix(-0.9272 -0.3745 0.3745 -0.9272 59.2395 40.0961)" display="inline" fill="#A07830" cx="33.5" cy="14.3" rx="0.8" ry="1.6"/>
	
		<ellipse transform="matrix(-0.9272 -0.3745 0.3745 -0.9272 59.1817 40.6086)" display="inline" cx="33.5" cy="14.6" rx="0.9" ry="1.8"/>
	
		<ellipse transform="matrix(-0.994 -0.1096 0.1096 -0.994 94.1457 37.99)" display="inline" cx="48.1" cy="16.4" rx="1.1" ry="1.8"/>
	<path display="inline" fill="#EAE4DC" d="M37.5,24.7c0,0-2.9,27.1-4.1,21.4c-1.3-5.7,0.3-20.6,0.3-20.6l2.1-3.1L37.5,24.7z"/>
	<path display="inline" fill="#EAE4DC" d="M39.8,24.5c0,0-3,27.6-0.5,22.2s4.1-20.6,4.1-20.6L42,22.6L39.8,24.5z"/>
	<path display="inline" fill="#BCAE97" d="M42.6,19.9c-1.6,0-2.4,0.7-3.6,0.7c-1.2,0-2.2-2.3-3.9-2.4c-2.7-0.3-5.1,1.5-5.3,3.9
		c-0.2,2.4,2,6,4.4,4.9c1.9-0.8,3.3-1.8,5-1.5c1.7,0.3,1.4,1.3,3.4,3.5c2.2,2.5,6-2.1,6-4.6S45.9,19.9,42.6,19.9z"/>
	<g display="inline">
		<path fill="#EAE4DC" d="M52.4,52.1c0.6-3.6,1.7-7.1,3.8-9.8c-1-0.7-1.9-1.5-2.5-2.5c-1.5,1.2-4.7,4.1-7.7,7.9
			C47.4,49.2,49.7,50.7,52.4,52.1z"/>
		<path fill="#EAE4DC" d="M52,55.5c-2.8-0.9-5.8-2.2-8.6-4c-1.5,2.4-2.7,5.1-3.3,8c1.1,4,11.9,5.3,11.9,5.3
			C51.8,62.6,51.6,59.2,52,55.5z"/>
	</g>
	<g display="inline">
		<path fill="#EAE4DC" d="M62,55.1c-1.2-3.3-2-7-1.4-10.3c-1-0.1-2-0.4-2.8-0.9c-0.7,1.5-2,5.1-2.8,9.3C57.2,54.1,59.6,54.8,62,55.1
			z"/>
		<path fill="#EAE4DC" d="M54.5,56.2c-0.3,2.9-0.3,5.9,0.5,8.6c4.8,0.8,10.9-1.5,10.9-1.5C65.1,62,64,60,63,57.7
			C60.5,57.5,57.6,57.1,54.5,56.2z"/>
	</g>
</g>
<g id="Layer_2" display="none">
	<polygon display="inline" fill="#876728" points="83.4,1.9 28,1.9 0.3,49.9 28,97.8 83.4,97.8 111,49.9 	"/>
	<polygon display="inline" fill="#6D5120" points="101.2,67 79,28.6 31,78.1 42.4,97.8 83.4,97.8 	"/>
	<polygon display="inline" fill="#3E95B7" points="32.3,35.6 38.7,31.1 32.3,28.6 	"/>
	<rect x="31" y="36.6" display="inline" fill="#46A2D0" width="49.3" height="41.5"/>
	<polygon display="inline" fill="#215B6D" points="72.6,31.1 79,28.6 59.8,28.6 51.5,28.6 32.3,28.6 38.7,31.1 31,36.6 51.5,36.6 
		59.8,36.6 80.3,36.6 	"/>
	<polygon display="inline" fill="#286E7F" points="31,36.6 38.7,36.6 38.7,31.1 	"/>
	<path display="inline" fill="none" stroke="#E2D0C6" stroke-width="2" stroke-miterlimit="10" d="M46.8,42.6
		c0.3,1.2,0.8,2.5,1.4,3.6c0.6,1.1,1.6,1.8,2.2,3c0.5,1.1,0.9,2.4,1.9,3.1C53.1,52.8,54,53,55,53c2.7,0.1,4.7-0.7,6.3-2.9
		c1.6-2.3,2.4-5.1,3.2-7.7"/>
	<path id="All_2_" display="inline" fill="#3E95B7" d="M41.9,68.2L41.9,68.2c0,3.2,3.1,5.2,3.1,5.2s3-2,3.1-5.2l0,0
		c3,0.9,5.9-1.3,5.9-1.3s-1-3.5-4-4.5l0,0c1.8-2.6,0.6-6,0.6-6s-3.6-0.1-5.5,2.4l0,0c-1.9-2.5-5.5-2.4-5.5-2.4s-1.3,3.4,0.6,6l0,0
		c-3,1-4,4.5-4,4.5S38.8,69.2,41.9,68.2z"/>
	<polygon display="inline" fill="#286E7F" points="79,35.6 72.6,31.1 79,28.6 	"/>
	<polygon display="inline" fill="#3E95B7" points="80.3,36.6 72.6,36.6 72.6,31.1 	"/>
</g>
<g id="Layer_3">
	<path fill="#CCC4BA" d="M35.9,82.8c1.4,0.1,3.4,0.2,5.1,0.2h0c2.4,0,3.2-0.2,3.4-0.2c0.8-0.2,2.3-2.6,3.2-4.9l0.5-1.4l1.5,0.2
		l20.6,3l1.6,0.2v1.6c0,0.4,0.2,0.9,0.3,1.1c2.2-0.3,10.4-4.3,11.6-5.7c0.4-0.4,2.1-3.2,0.8-15.4c-0.7-7-4.7-15-11-16.7
		c-8.1-2.2-16.5-5.5-17.6-13.3c-0.3-2.4-2.6-6-4.4-9c-1.4-2.3-2.7-4.3-3.1-5.8c-0.7-2.4-4.9-4.5-8.9-4.5c-1.8,0-3.3,0.5-4.1,1.3
		l-0.6,2.1c0.2,2.3-1.2,6.7-2.4,10.2c-0.1,0.2-4,10.1-4,22.7c0,7.5,3.4,13.8,5.8,18.3c1.9,3.5,3.2,6,2.7,8.3
		C36.4,77.5,36,80.8,35.9,82.8z"/>
	<path fill="#6D5120" d="M89.8,84.4L50.3,16.2c0,0,18.9,47.3,20.7,63l16.1,10L89.8,84.4z"/>
	<polygon fill="#876728" points="83.1,0.2 27.7,0.2 0,48.2 27.7,96.1 83.1,96.1 110.8,48.2 	"/>
	<polygon fill="#77582A" points="96.2,73.4 82.5,49.9 73.6,56.2 89.8,84.4 	"/>
	<polygon fill="#6D5120" points="89.8,84.4 73.6,56.2 33.8,84.6 40.5,96.1 83.1,96.1 	"/>
	<path fill="#CCC4BA" d="M30.7,25.3c0,0-4.1,10.1-4.1,23.3s9.5,22.3,8.6,26.1s-1.3,9.9-1.3,9.9s8.7,0.7,11.1,0
		c2.4-0.7,4.4-6.1,4.4-6.1l20.6,3c0,0,0,2.4,1.6,3c1.6,0.6,12-4.4,13.6-6.3c1.6-1.9,2.2-7.3,1.3-16.8c-0.8-7.9-5.4-16.5-12.4-18.4
		c-7-1.9-15.2-4.8-16.2-11.7c-0.6-4.7-6.7-11.9-7.6-15.1c-1.6-5.4-13.1-8-16.5-3.6l-0.9,2.9C33.5,17.2,30.7,25.3,30.7,25.3"/>
	<path fill="#BCAE97" d="M32.9,18.9c0-3.5,3.6-6.2,7.9-5.5c3.4,0.5,6.2,2.8,6.2,6.3s-2.8,4.9-6.2,4.9C37.4,24.6,32.9,22.4,32.9,18.9
		z"/>
	
		<ellipse transform="matrix(-0.9272 -0.3745 0.3745 -0.9272 59.3236 39.6822)" fill="#A07830" cx="33.5" cy="14.1" rx="0.8" ry="1.6"/>
	<ellipse transform="matrix(-0.9272 -0.3745 0.3745 -0.9272 59.2659 40.1946)" cx="33.5" cy="14.3" rx="0.9" ry="1.8"/>
	<ellipse transform="matrix(-0.994 -0.1096 0.1096 -0.994 94.1729 37.5611)" cx="48.1" cy="16.2" rx="1.1" ry="1.8"/>
	<path fill="#EAE4DC" d="M37.5,24.5c0,0-2.9,27.1-4.1,21.4s0.3-20.6,0.3-20.6l2.1-3.1L37.5,24.5z"/>
	<path fill="#EAE4DC" d="M39.8,24.3c0,0-3,27.6-0.5,22.2s4.1-20.6,4.1-20.6L42,22.4L39.8,24.3z"/>
	<path fill="#BCAE97" d="M42.6,19.7c-1.6,0-2.4,0.7-3.6,0.7s-2.2-2.3-3.9-2.4c-2.7-0.3-5.1,1.5-5.3,3.9c-0.2,2.4,2,6,4.4,4.9
		c1.9-0.8,3.3-1.8,5-1.5c1.7,0.3,1.4,1.3,3.4,3.5c2.2,2.5,6-2.1,6-4.6S45.9,19.7,42.6,19.7z"/>
	<g>
		<path fill="#EAE4DC" d="M52.4,51.9c0.6-3.6,1.7-7.1,3.8-9.8c-1-0.7-1.9-1.5-2.5-2.5c-1.5,1.2-4.7,4.1-7.7,7.9
			C47.4,48.9,49.7,50.5,52.4,51.9z"/>
		<path fill="#EAE4DC" d="M52,55.3c-2.8-0.9-5.8-2.2-8.6-4c-1.5,2.4-2.7,5.1-3.3,8c1.1,4,11.9,5.3,11.9,5.3
			C51.8,62.4,51.6,58.9,52,55.3z"/>
	</g>
	<g>
		<path fill="#EAE4DC" d="M62,54.9c-1.2-3.3-2-7-1.4-10.3c-1-0.1-2-0.4-2.8-0.9c-0.7,1.5-2,5.1-2.8,9.3C57.2,53.9,59.6,54.6,62,54.9
			z"/>
		<path fill="#EAE4DC" d="M54.5,56c-0.3,2.9-0.3,5.9,0.5,8.6c4.8,0.8,10.9-1.5,10.9-1.5c-0.8-1.3-1.9-3.3-2.9-5.6
			C60.5,57.3,57.6,56.9,54.5,56z"/>
	</g>
</g>
</svg>
