<?xml version="1.0" encoding="utf-8"?>
<!-- Generator: Adobe Illustrator 18.0.0, SVG Export Plug-In . SVG Version: 6.00 Build 0)  -->
<!DOCTYPE svg PUBLIC "-//W3C//DTD SVG 1.1//EN" "http://www.w3.org/Graphics/SVG/1.1/DTD/svg11.dtd">
<svg version="1.1" id="Layer_1" xmlns="http://www.w3.org/2000/svg" xmlns:xlink="http://www.w3.org/1999/xlink" x="0px" y="0px"
	 viewBox="0 0 249 204" enable-background="new 0 0 249 204" xml:space="preserve">
<g>
	<path fill="#876728" d="M59.3,193.8c-4.2-1.1-8.3-2.4-11.9-3.6c-0.6-0.2-1.3-0.5-1.9-0.5C38,189.4,31.7,184,31.7,174
		c0-10,6.1-16.4,14.5-16.4c8.5,0,14,6.6,14,15.8c0,8-3.7,13.1-8.9,14.9v0.2c3.1,0.8,6.5,1.5,9.1,2L59.3,193.8z M55.9,173.5
		c0-6.2-3.2-12.7-9.8-12.7c-6.8,0-10.1,6.3-10.1,13c0,6.6,3.6,12.6,9.9,12.6C52.3,186.4,55.9,180.6,55.9,173.5z"/>
	<path fill="#876728" d="M77.7,189.2l-0.3-2.8h-0.1c-1.2,1.8-3.7,3.3-6.8,3.3c-4.5,0-6.8-3.2-6.8-6.4c0-5.4,4.8-8.4,13.5-8.3v-0.5
		c0-1.8-0.5-5.2-5.1-5.2c-2.1,0-4.3,0.6-5.8,1.7l-0.9-2.7c1.8-1.2,4.5-2,7.4-2c6.8,0,8.5,4.7,8.5,9.2v8.4c0,1.9,0.1,3.8,0.4,5.4
		H77.7z M77.1,177.8c-4.4-0.1-9.5,0.7-9.5,5c0,2.6,1.8,3.9,3.8,3.9c2.9,0,4.8-1.8,5.4-3.7c0.1-0.4,0.2-0.9,0.2-1.3V177.8z"/>
	<path fill="#876728" d="M88.7,166.8l4.9,13.2c0.5,1.5,1.1,3.2,1.4,4.6h0.1c0.4-1.3,0.9-3.1,1.4-4.7l4.4-13.1h4.3l-6.1,16
		c-2.9,7.7-4.9,11.6-7.7,14c-2,1.8-4,2.5-5,2.6l-1-3.4c1-0.3,2.4-1,3.6-2c1.1-0.9,2.5-2.5,3.4-4.5c0.2-0.4,0.3-0.7,0.3-1
		s-0.1-0.6-0.3-1.1l-8.3-20.6H88.7z"/>
	<path fill="#876728" d="M110.8,178.8c0.1,5.5,3.6,7.8,7.7,7.8c2.9,0,4.7-0.5,6.2-1.2l0.7,2.9c-1.4,0.6-3.9,1.4-7.4,1.4
		c-6.9,0-11-4.5-11-11.3c0-6.8,4-12.1,10.5-12.1c7.3,0,9.2,6.4,9.2,10.5c0,0.8-0.1,1.5-0.1,1.9H110.8z M122.7,175.9
		c0-2.6-1.1-6.6-5.6-6.6c-4.1,0-5.9,3.8-6.2,6.6H122.7z"/>
	<path fill="#876728" d="M131.7,156.4h4.1v14h0.1c0.6-1.2,1.7-2.2,2.9-2.9c1.2-0.7,2.6-1.2,4.2-1.2c3,0,7.8,1.8,7.8,9.6v13.3h-4.1
		v-12.9c0-3.6-1.3-6.7-5.2-6.7c-2.6,0-4.7,1.8-5.5,4.1c-0.2,0.6-0.3,1.2-0.3,1.9v13.5h-4.1V156.4z"/>
	<path fill="#876728" d="M155.6,187.6c0-1.2,0.8-2,1.9-2s1.9,0.8,1.9,2c0,1.2-0.7,2-1.9,2C156.4,189.6,155.6,188.7,155.6,187.6z"/>
	<path fill="#876728" d="M174,188.6c-0.7,0.4-2.4,0.9-4.4,0.9c-4.7,0-7.7-3.2-7.7-7.9c0-4.8,3.3-8.2,8.3-8.2c1.7,0,3.1,0.4,3.9,0.8
		l-0.6,2.2c-0.7-0.4-1.7-0.7-3.3-0.7c-3.6,0-5.5,2.6-5.5,5.9c0,3.6,2.3,5.8,5.4,5.8c1.6,0,2.7-0.4,3.5-0.8L174,188.6z"/>
	<path fill="#876728" d="M191.1,181.3c0,5.7-4,8.2-7.7,8.2c-4.2,0-7.4-3.1-7.4-8c0-5.2,3.4-8.2,7.7-8.2
		C188.1,173.4,191.1,176.6,191.1,181.3z M178.8,181.5c0,3.4,2,6,4.7,6c2.7,0,4.7-2.5,4.7-6c0-2.6-1.3-6-4.6-6
		C180.2,175.5,178.8,178.6,178.8,181.5z"/>
	<path fill="#876728" d="M194.6,177.9c0-1.6,0-2.9-0.1-4.2h2.5l0.1,2.5h0.1c0.9-1.5,2.3-2.8,4.9-2.8c2.1,0,3.7,1.3,4.4,3.1h0.1
		c0.5-0.9,1.1-1.5,1.7-2c0.9-0.7,2-1.1,3.4-1.1c2,0,5.1,1.3,5.1,6.7v9.1H214v-8.8c0-3-1.1-4.8-3.4-4.8c-1.6,0-2.8,1.2-3.3,2.6
		c-0.1,0.4-0.2,0.9-0.2,1.4v9.6h-2.8v-9.3c0-2.5-1.1-4.3-3.2-4.3c-1.8,0-3,1.4-3.5,2.8c-0.2,0.4-0.2,0.9-0.2,1.4v9.3h-2.8V177.9z"/>
</g>
<g>
	<polygon fill="#6D5120" points="164.7,7.9 204.8,77.5 44.2,77.5 84.4,7.9 	"/>
	<polygon fill="#3F884B" points="89.4,138.4 159.7,138.4 194.8,77.5 54.2,77.5 	"/>
	<polygon fill="#2D7D3D" points="89.4,16.6 54.2,77.5 194.8,77.5 159.7,16.6 	"/>
	<path fill="#CC9666" d="M116.4,21.9c0-2.6-1.3-5.2-4.5-7.2c-0.3,0.5-0.5,1-0.7,1.6c-0.2,0.8-0.3,1.5-0.6,2.3
		c-0.7,1.9-2.5,2.1-4.1,2.9c-1.5,0.8-3,1.7-4.3,2.8c-3,2.4-5.3,5.8-6,9.6c-4.3,2.9-6.8,26-4.9,23.9c1.8-2,3.7-4,5.5-6l18.8-26.2
		C116.1,24.3,116.4,23.1,116.4,21.9z"/>
	<path fill="#996244" d="M111.1,26.9c0.2-0.5,0.3-1,0.3-1.6c0-2.3,1.5-3,3.7-2.4c2.2,0.7,3.2,2.6,4.5,4.4
		c0.1,0.1,25.2,33.9,25.2,33.9l-14.1,9.2l-21.1-24.8c-1.8-3.9-5.2-10.1-2-13.8C108.9,30.4,110.5,28.8,111.1,26.9z"/>
	<path fill="#E5A876" d="M117.7,12.3c6.1-3.9,16.8,10.8,16.8,10.8l27.2,49.6l-34.3-28.9L116.1,28C114.3,24.3,109.9,17.2,117.7,12.3z
		"/>
	<path fill="#996244" d="M165.6,70.3c-5.6-5.8-10-13.9-14.7-20.5c-3.6-5.1-7.3-10.1-10.9-15.2c-2.3-3.2-9.2-11.9-0.2-12.6
		c1.7-0.1,3.2,0.9,4.5,1.9c4.2,3,8.5,6.1,12.7,9.1c1.2,0.9,2.4,1.7,3.4,2.9c1.5,1.7,2.3,3.9,3,6.1c0.7,2,1.4,4,2.1,5.9
		c1.5,4.2,3.7,5.5,6.2,8.6c2.2,2.6,2.2,6.6,2.8,9.9c0.9,5.3,1.8,10.5,2.6,15.8C177.1,82.3,165.6,70.3,165.6,70.3z"/>
	<path fill="#CC9666" d="M127.4,46.6l1.3-1.4c0,0-0.7-0.9-1.7-2.4l-11-14.7c-0.8-1.4-1.6-2.4-2.4-3.3
		C116,33.1,127.4,46.6,127.4,46.6z"/>
	<path fill="#CC9666" d="M134.4,25.5c-0.5-1.1-0.8-2.3-0.8-3.5v0c-0.5-0.6-1.1-1.4-1.8-2.2c-1.5,5.8,8.4,17,8.4,17l0.2-0.2l1.8-0.3
		L134.4,25.5z"/>
	<polyline fill="#943A75" points="70,95.5 108.1,133.6 108.1,95 	"/>
	<path fill="#E5A876" d="M132.3,21.9c0.1-2.2,1.7-3.9,4.4-3.3c3.7,0.8,7.2,3.3,10.1,5.6c3,2.4,5.3,5.8,6,9.6
		c4.3,2.9,6.8,26,4.9,23.9c-1.8-2-3.7-4-5.5-6c0,0-18.8-26.2-18.8-26.2C132.6,24.3,132.2,23.1,132.3,21.9z"/>
	<path fill="#E5A977" d="M153.1,64.9c-0.3-7.8,1.7-10.4,10.7-14.7c5.3,18.2,21,21.1,22.2,31.3c0.3,2.5-9.2,21.3-13.3,25.6
		c-3.3,3.4-12.6,13-16.5,16.9l3.5,14.3l-55.4,0c2.6-7,5.3-17.7,0.5-32.4C97.4,83.3,153.1,65.2,153.1,64.9z"/>
	<path fill="#F9C295" d="M92.9,124.1l-3.5,14.3h58.3c0-8.2-0.5-21-3.4-32.4c0,0-48.3-40.8-48.3-41.1c0.3-7.8-1.7-10.4-10.7-14.7
		c-5.3,18.2-21,21.1-22.2,31.3c-0.3,2.5,6.2,21.3,10.3,25.6C76.7,110.6,89,120.2,92.9,124.1z"/>
	<path fill="#CC9666" d="M108.1,138.4l51.6,0c0,0-19.2-56.2-53-69.8l-23.6,27L108.1,138.4z"/>
	<path fill="#B27F5D" d="M79.2,67.4c0,0,7.5-6,8.1-9.8c0.7-4.9-2.1-7.3-2.1-7.3c-1.7,5.8-4.4,10-7.4,13.4
		C78.8,65.3,79.2,67.4,79.2,67.4z"/>
	<path fill="#B27F5D" d="M161.7,57.6c0.5,3.8,8.1,9.8,8.1,9.8s0.5-2.1,1.4-3.7c-3-3.4-5.7-7.6-7.4-13.4
		C163.8,50.3,161,52.7,161.7,57.6z"/>
	<path fill="#CC9666" d="M172.6,107.2c0.7-0.7,1.5-1.9,2.5-3.2l-18.3-31.5c-4.9,2.7-44.8,25.1-52.6,30.3v0c0,0.2,0,0.3,0,0.5
		c0,0.2,0,0.3,0.1,0.5c0,0.1,0,0.3,0.1,0.4c0,0.2,0.1,0.4,0.1,0.6c0,0.1,0.1,0.2,0.1,0.4c0.1,0.3,0.2,0.6,0.3,1
		c0.2,0.5,0.3,1,0.5,1.5c4.1,14,1.5,24.2-1,30.9l55.4,0l-3.5-14.3l0,0C160,120.2,169.4,110.6,172.6,107.2z"/>
	<g id="N26fxi_3_">
		<g>
			<path fill="#E5A977" d="M182.6,101c-0.1,0.2-0.1,0.5-0.2,0.7c-0.2,0.5-0.5,1-0.7,1.4c-0.4,0.8-0.7,1.6-1.1,2.3
				c-1.1,1.9-2.2,3.8-3.3,5.8c-0.2,0.3-0.3,0.7-0.2,1c0.3,1.8-0.5,3-1.7,4c-0.3,0.2-0.6,0.6-0.7,0.9c-0.8,1.7-1.4,3.4-2.2,5
				c-1,2-2.3,3.9-3.4,5.8c-1,1.7-2,3.4-3,5.1c-0.4,0.6-0.9,1.1-1.3,1.7c-0.7,1-1.5,1.9-2.1,3c-0.6,1-1.5,1.3-2.4,1.4
				c-2.8,0.1-5.7,0.1-8.5,0.3c-1.6,0.2-3.2,0.1-4.8,0.1c-3.5-0.1-7,0.5-10.5,0.7c-0.4,0-0.7-0.2-1.1-0.2c0.5-0.1,1,0,1.4-0.2
				c1.6-1.1,3.5-2,4.7-3.5c2-2.5,3.7-5.3,5.3-8.1c0.9-1.5,1.2-3.3,1.9-4.9c0.9-2.2,1.1-4.4,0.5-6.8c-0.4-1.7-0.4-3.5-0.6-5.6
				c1.5,0.4,2.6,0.6,3.6,0.9c4.1,1.2,8.1,1.1,11.8-1.2c1.1-0.7,2.2-1.7,3.4-2.1c2.3-0.8,3.9-2.2,5.4-4.1c0.7-0.9,1.4-1.8,2.3-2.6
				c1-0.9,2.3-1.6,3.3-2.5c1.4-1.2,1.4-1.2,0.3-2.5c0.3-1,1.1-1.8,0.5-3c-1.4-3-2.7-6-4.3-8.9c-0.8-1.5-1.4-3.4-3.4-4
				c-0.3-0.1-0.4-0.6-0.6-1c-0.1-0.3-0.2-0.7-0.3-1c-1.2-2.2-3.2-3.7-5-5.4c-0.1-0.1-0.3-0.2-0.4-0.2c-1.4,0.2-1.8-0.8-2.3-1.7
				c-0.1-0.4-0.1-0.9-0.2-1.3c-0.8-1.8-0.1-4.9,1.6-5.9c1.7-1,2.8-2.9,5-3.1c0.2,0,0.3-0.7,0.4-1.1c0-0.1-0.4-0.4-0.6-0.4
				c-0.8,0.3-1.6,0.7-2.4,1c-2,0.9-4,1.9-6.1,2.9c-0.1-0.3-0.2-0.7-0.5-1c-0.3-0.4-0.8-0.7-1.2-1c0.1-0.3,0.2-0.6,0.3-0.8l0.1,0
				l-0.1,0c0-0.2,0-0.5,0-0.7c0.8-1.5,1.6-3.1,1.8-4.9c0.2-1.7,0.5-3.3,0.4-5c-0.1-0.9-0.1-1.6,0.3-2.4c0.6,0.3,1.1,0.8,1.7,1
				c1.6,0.5,3.2,0.9,4.7,1.5c2.1,0.8,3.6,2.4,5,4.2c2.4,2.9,4.3,6.2,5.6,9.7c1.2,3,2.2,6.1,4.3,8.6c1.7,2,2.3,4.6,3.2,7
				c0.3,0.9,0.4,2,0.3,3c-0.3,3.8-0.7,7.7-1.1,11.5c-0.7,1.5-1.4,3-2.1,4.5C183,99.8,182.8,100.4,182.6,101z"/>
			<path fill="#E5A977" d="M98.5,138.7c-1.1,0.4-2.2,0.7-3.1,1.2c-2.1,1-4.4,2.5-6.8,1.7c-2-0.6-3.2-2.5-4.2-4.3
				c-1.9-3.4-3.6-6.8-5.1-10.3c-1.6-3.6-2.4-7.8-4.3-11.3c-1.2-2.3-3.4-3.7-4.5-6c-1.8-3.5-3.3-7.3-4.9-10.9c-1.1-2.4-2.3-4.7-3.5-7
				c-0.2-0.3-0.3-0.7-0.4-1c1.2-0.3,1.4-0.7,1-1.9c-0.1-0.3-0.2-0.6-0.2-0.9c-0.2-4.2,2.2-8.4,3-12.6c0.4-2.2,1.2-4.4,3.1-5.7
				c1.3-0.9,1.5-2,1.3-3.4c-0.4-2.1,1.6-4.1,2.5-6.1c1.1-2.8,1.9-5.7,4.1-7.8c1.3-1.2,0.7-2.4,2.1-3.6c0.5-0.4,1.1-0.8,1.6-1.2
				c2.1-1.5,4.1-2.9,6.2-4.4c1.5-1.1,2.7-2.5,4.7-2.8c-0.1,1.1,0,2.3-0.3,3.3c-0.5,1.4-0.6,2.7,0,4.1c0.2,0.6,0.2,1.4,0,2
				c-0.6,1.3-0.7,2.7-0.4,4c-0.3,0-0.6,0-0.9,0c0.6,2.8,0.1,5.4-1.1,7.8c-0.5,0.9-1,1.4-1.9,1.5c-1.1,0.1-2.1-0.1-3.3-0.1
				c-0.2,0.8,0.5,1.3,1.1,1.9c1.7,1.7,1.8,1.7,0.9,4.1c-0.1,0.3-0.4,0.5-0.4,0.8c-0.1,0.3,0,0.7,0,1.1c0.4,0,0.8,0,1.1-0.1
				c0.3-0.1,0.5-0.5,0.7-0.8c0,0.3,0.1,0.6,0,0.8c-0.5,1.7-0.9,3.3-1.4,5c-0.4,0.3-0.8,0.6-1.1,1c-2.1,3-4.3,6-6.3,9.1
				c-1.9,2.8-2.6,5.9-2.4,9.2c0,0.5-0.1,1.1-0.2,1.7c0.1,0.2,0.2,0.3,0.2,0.5c0.2,0.4,0.3,0.8,0.5,1.2c0.5,0.9,1,1.7,0.7,2.8
				c-0.3,1.2,0.1,2.4,1,3.3c0.8,0.8,1.5,1.6,2.3,2.5c1.5,1.7,2.7,3.5,4.4,4.9c2,1.7,4.4,2.6,7,2.6c0.4,0,1.2,0.2,1.2,0.4
				c0.1,0.6,0.1,1.3-0.1,1.8c-0.3,0.8-0.9,1.6-1.2,2.4c-0.5,1.4-1.1,2.7-1.5,4.2c-0.4,1.3-1.8,2.2-2.8,3.3c-0.3,0.3-0.9,0.5-1.3,0.7
				c-0.3-0.7-0.9-0.4,0,0c0.3,0.6,0.6,1.2,0.9,1.9c0.4-0.3,0.9-0.6,1.3-0.8c0,0,0.1-0.1,0.1-0.1c1.3-1.1,3.1-1.6,3.5-3.6
				c0-0.1,0.4-0.1,0.5-0.2c0.8-0.6,1.5-1.2,2.3-1.8c0.4-0.4,0.7-0.8,1.2-1.2c1.1-0.9,2-1.8,2.6-3.1c0.9-2.1,1.9-4.1,3-6.1
				c0.2-0.3,1.2-0.5,1.3-0.3c0.6,0.8,1.2,1.7,1.5,2.6c0.7,2.8,0.5,5.7,1.9,8.3c0.3,0.5,0.8,0.9,1,1.4c0.1,0.5-0.1,1-0.2,1.6
				c1.3-0.8,2.5-0.5,2.7,0.6c0.2,1.2,0.7,2.2,1.9,2.6c-1.1,1.1-2.1,2.2-3.2,3.2c-0.7,0.6-1.4,1.1-2.1,1.7c-1.5,1.3-3,2.6-4.6,3.8
				C100.1,138.1,99.4,138.4,98.5,138.7z"/>
			<path fill="#CD9769" d="M178.6,97.1c1,1.3,1.1,1.4-0.3,2.5c-1.1,0.9-2.3,1.6-3.3,2.5c-0.8,0.7-1.6,1.7-2.3,2.6
				c-1.4,1.9-3.1,3.3-5.4,4.1c-1.2,0.4-2.2,1.4-3.4,2.1c-3.8,2.3-7.7,2.4-11.8,1.2c-1.1-0.3-2.1-0.6-3.6-0.9
				c0.2,2.1,0.3,3.9,0.6,5.6c0.5,2.4,0.3,4.6-0.5,6.8c-0.6,1.6-1,3.4-1.9,4.9c-1.6,2.8-3.3,5.6-5.3,8.1c-1.2,1.5-3.1,2.4-4.7,3.5
				c-0.3,0.2-0.9,0.1-1.4,0.2c-0.4,0-0.8,0-1.2,0c0,0,0-0.1,0-0.1c-0.1-0.1-0.3-0.3-0.4-0.4c-1-0.9-2.4-1.1-3.1-2.4
				c-0.5-0.8-1.3-1.4-1.9-2.1c-0.5-0.5-0.9-1.1-1.4-1.7c0.7-0.6,1.4-1.2,2.2-1.8c0.5-0.4,1.1-0.8,1.5-1.3c1.5-1.9,2.9-3.7,4.3-5.6
				c2.1-2.8,3.9-5.8,4.7-9.3c0.2-0.2,0.4-0.3,0.5-0.5c0.1-0.6,0.1-1.1,0.2-1.7c0.2-0.2,0.4-0.4,0.5-0.7c0.1-0.2,0.1-0.3,0.2-0.5
				c0.1-0.2,0.3-0.4,0.4-0.6c0.4-0.4,1-0.7,1.2-1.2c0.3-1.1,0.5-2.3,0.7-3.4c0-0.2-0.1-0.4-0.2-0.6c0-0.2,0.1-0.3,0.1-0.5
				c0.4-0.6,1-1.1,1.2-1.7c0.1-0.4-0.2-1-0.4-1.6c0-0.1,0.1-0.3,0.1-0.4c0.4-0.1,0.7-0.3,1-0.4c1.5,1.2,3.1,1.9,4.9,2.1
				c0.2,0.1,0.4,0.1,0.6,0.2c0.1,0.1,0.2,0.3,0.3,0.4c2.2,0.6,4.4,0.9,6.6,0.3c2.6-0.8,5.1-1.9,7.6-2.8c0.9-0.3,1.8-0.7,2.8-0.7
				c2.1,0,3.6-1.1,5.2-2.2c0.7-0.5,1.3-1.1,2.1-1.4C176.5,97.1,177.5,97.1,178.6,97.1z"/>
			<path fill="#996244" d="M149.1,16c-0.4,1.4-0.8,2.8-1.2,4.3c1.9,0.8,3.4,1.9,4.3,3.8c0.1,0.3,0.8,0.4,1.1,0.4
				c1.5-0.1,3.1-0.3,4.6-0.6c2-0.4,4.7,1.8,5.3,3.8c1,3.2,0.9,6.3-1.1,9.1c-0.3,0.4-0.9,0.5-1.4,0.8c-0.2,0-0.3-0.1-0.5-0.1
				c0,0,0,0,0,0c0-1.3-0.8-2.2-1.6-3.2c1.4-0.8,1.9-2.2,2.3-3.6c0.3-1.1,0.1-2.3,0.1-3.4c-0.9-1.8-2.6-1.3-4-1.3
				c-2.6,0-5,1.2-7.3,2.5c-2,1-3.6,2.4-5.2,3.9c-0.7,0.6-1,1.2-0.7,2.1c-0.1,0-0.1,0.1-0.2,0.1c-0.4,0-0.9-0.1-1.3,0
				c-0.5,0.1-1,0.3-1.5,0.5c-0.2-0.5-0.3-1-0.5-1.5c-1-2-1.9-3.9-3-5.8c-0.5-0.8-1.2-1.4-1.9-2.2c-0.6-1.1-1.2-2.2-1.9-3.3
				c-0.3-0.5-0.8-0.8-1.2-1.2c-0.8-1.5-1.6-3-2.4-4.5c-0.9-1.8-2.5-2.5-4.2-3.2c-1.1-3.1-5.1-5.1-8.2-4.2c-1,0.3-1.6,0.9-1.7,2
				c0,0.3-0.2,0.6-0.3,0.9c-0.3,1.4-1.1,2.7-0.2,4.1c0.1,0.1,0.1,0.4,0,0.6c-0.5,1.4,0.2,2.5,1,3.5c1,2.1,1.8,4.3,2.9,6.3
				c0.5,0.9,1.1,1.7,0.9,3c-0.5-0.3-1-0.6-1.3-0.9c-1.5-1-1.5-2.9-2.2-4.3c-0.8-1.6-1.2-3.3-2.1-4.8c-0.6-1-0.4-2.4-1.7-2.9
				c-0.2-0.1-0.3-0.2-0.5-0.2l0,0c-0.1-0.3-0.2-0.8-0.5-1c-1.9-1.8-3.9-3.6-5.9-5.2c-1.6-1.3-3.5-0.3-3.8,1.7c0,0.2-0.1,0.4-0.1,0.6
				c-0.2,1.8-0.5,3.6-0.7,5.4c0,1.9,0.1,3.8,0.8,5.7c1.1,2.8,2.7,5.1,5.1,6.8c1.4,1,2.9,1.9,4.7,1.7c1.2-0.1,2.3-0.2,3.5-0.2
				c0.3,0,0.7,0.4,1,0.5c-0.2,0.4-0.3,0.9-0.6,1c-0.7,0.4-1.5,0.6-2.3-0.1c-1-0.8-1.8-0.6-2.5,0.5c-0.4,0-0.8,0-1.2,0
				c-0.7-0.5-1.3-1.4-2.6-1.1c0.3,0.6,0.5,1.1,0.7,1.6c-0.4-0.1-0.8-0.1-1.1-0.3c-0.6-0.4-1.1-0.8-1.7-1.2c-0.2-0.3-0.3-0.6-0.5-0.9
				c-0.3-0.7-0.5-1.5-0.9-2.2c-0.3-0.6-0.9-0.9-1.4-1.4c-0.2-0.4-0.5-0.8-0.7-1.2c0-0.2,0-0.3,0-0.5c-0.6-2.2-1.2-4.3-1.8-6.5
				c0-0.1-0.1-0.3-0.1-0.3c-1.4-1.2-3-1.8-4.8-1.2c-1.4,0.4-2.1,1.7-2.1,4c-0.4,1.1-0.4,2.1,0.3,3.1c0.4,0.5,0.7,1.2,1,1.8
				c0.9,1.6,1.8,3.2,2.7,4.7c-1,0.3-2,0.5-3,0.8l0-0.1c-0.2-0.8-0.2-1.6-0.6-2.3c-1.6-2.7-2.1-5.6-2-8.7c0.1-2,0.8-3.8,2.6-4.4
				c1.3-0.5,3-0.3,4.4-0.3c1,0.1,1.3,0,1.1-1.1c0-0.2-0.1-0.5-0.2-0.7c0.2-0.8,0.4-1.7,0.7-2.5c0.4-1.7,1.3-3,2.6-4
				c1.1-0.9,4.2-0.7,5.3,0.3c1.2,1.2,2.3,2.4,3.5,3.5c0.3,0.3,0.6,0.5,1.1,0.9c0.6-2.2,1.5-3.9,3-5.3c1.7-1.5,4.1-1.8,6.1-0.8
				c1.9,0.9,3.5,2.2,5,3.7c1.4,1.4,3,2.7,4.6,3.9c0.3,0.2,0.7,0.2,1.1,0.3c0.9-0.7,1.7-1.4,2.6-2.1c2.4-1.6,4.8-3.1,7.7-3.6
				c3.2-0.6,6.2,1.7,6.5,5.1C148.9,15.1,149,15.6,149.1,16z M136.4,23.7c0.9,1.8,1.7,2.2,3.1,1.1c1.2-0.9,2.2-2.1,3.3-3.2
				c0.4-0.4,0.7-0.9,1.1-1.2c1.7-1.4,2.6-3.3,2.9-5.4c-0.2-0.7-0.1-1.6-0.5-2c-1.3-1.2-2.9-2.1-4.8-1.3c-1.5,0.7-3,1.5-4.4,2.4
				c-1.1,0.7-2.1,1.6-3.2,2.4c-0.5,0.4-1,0.8-1.5,1.3c1,1.3,1.8,2.4,2.6,3.6c0.1,0.2,0.3,0.4,0.3,0.6
				C135.2,22.9,135.8,23.3,136.4,23.7z M141.1,31.2c0.3-0.1,0.5-0.2,0.6-0.3c2-2.2,4.6-3.4,7.5-4.1c1.1-0.3,1.4-1.4,0.6-2.2
				c-0.9-1.1-1.9-1.8-3.3-2.1c-0.7-0.1-1-0.1-1.5,0.4c-1.6,2-3.6,3.4-6.1,4.5C139.7,28.6,140.4,29.8,141.1,31.2z"/>
			<path fill="#996244" d="M75.9,47.9c3.1-1.3,3.9-3.4,6.7-5.3c2.2-1.5,4.5-2.9,6.8-4.1c0.6-0.3,1.6-0.1,2.4-0.2
				c-0.2,0.7-0.5,1.4-0.7,2.1c-1.9,0.3-3.2,1.8-4.7,2.8c-2.1,1.5-4.1,2.9-6.2,4.4c-0.5,0.4-1.1,0.8-1.6,1.2
				c-1.4,1.2-0.7,2.4-2.1,3.6c-2.3,2.1-3,5-4.1,7.8c-0.8,2-2.8,4-2.5,6.1c0.2,1.4,0.1,2.5-1.3,3.4c-1.9,1.3-2.7,3.5-3.1,5.7
				c-0.8,4.2-3.2,8.4-3,12.6c0,0.3,0.1,0.6,0.2,0.9c0.5,1.1-0.4,12.6-1,10.9c-0.3-0.9-1.2-11.2-1.6-12c0.4-1.7,1.6-7.2,2.2-8.8
				c0.8-2.1,1.1-4.2,1.3-6.4c0.1-2.1,0.3-4.2,1.8-5.9c0.9-1.1,4.4-10.3,6.6-12.9c1.1-1.3,1.7-3,2.6-4.5C75,48.8,75.5,48.4,75.9,47.9
				z"/>
			<path fill="#996244" d="M160.4,40.3c1.7-0.1,3.3-0.2,5-0.3c1.9-0.1,3.3,0.8,4,2.3c0.5,0.9,0.2,2.3,0.2,3.5c0,0.4-0.1,0.7-0.2,1.1
				c-0.4,1.7-0.3,2.8,1.7,3.7c1.7,0.8,3,2.7,4.3,4.2c1.3,1.5,2.6,3.1,3.6,4.8c0.9,1.7,1.6,3.5,2.1,5.4c0.6,2.7,1.9,5,3.3,7.2
				c1.5,2.6,3.2,5.1,4.5,7.8c0.5,1,0.2,2.5,0.1,3.8c-0.1,2.1-0.4,4.1-0.6,6.1c-0.8,1.4-1.6,2.9-2.4,4.3c0,0.6-0.3,0.6-0.7,0.3
				c0.4-3.8,0.8-7.7,1.1-11.5c0.1-1,0.1-2.1-0.3-3c-0.9-2.4-1.5-5-3.2-7c-2.1-2.5-3.1-5.6-4.3-8.6c-1.4-3.5-3.2-6.8-5.6-9.7
				c-1.5-1.8-2.9-3.4-5-4.2c-1.6-0.6-3.2-1-4.7-1.5c-0.6-0.2-1.1-0.7-1.7-1c0-0.4,0-0.7,0-1.1c0.4,0,0.8,0,1.2,0
				c1.1,0.9,2.2,1.8,3.3,2.6c0.5,0.4,0.9,0.3,1-0.5c0.8-1,1-4.3,0.3-5.3c-0.8-1.2-1.9-1.8-3.1-1.4c-1,0.3-2,0.6-3,1
				C160.3,42.3,159.9,41.1,160.4,40.3z"/>
			<path fill="#996244" d="M115.9,125.7c-1.4,3.3-3.7,5.9-6.1,8.5c-1.3,1.3-3.1,2.1-4.6,3.2c-0.7,0.5-1.3,1-2,1.6
				c-1.2,0.1-2.4,0.2-3.7,0.2c-0.3,0-0.6-0.3-1-0.4c0.8-0.4,1.6-0.7,2.3-1.2c1.6-1.2,3-2.5,4.6-3.8c0.7-0.6,1.4-1.1,2.1-1.7
				c1.1-1,2.1-2.1,3.2-3.2c0.6-1,1.4-2,1.8-3.2c0.4-1.1,0.9-1,1.7-0.7c0.5,0.1,1,0,1.5,0C115.7,125.3,115.8,125.5,115.9,125.7z"/>
			<path fill="#996244" d="M127.3,139.3c-0.4-0.6-0.6-1.3-1.1-1.6c-1.2-0.9-1.3-2.1-1-3.4c0.7-0.3,1.4-0.6,2.1-0.8
				c0.4,0.6,0.9,1.2,1.4,1.7c0.6,0.7,1.4,1.3,1.9,2.1c0.8,1.2,2.2,1.5,3.1,2.4c0.1,0.1,0.3,0.3,0.4,0.4c-0.1,0-0.1,0-0.2,0.1
				c-0.2,0-0.3,0-0.5,0c-0.2,0-0.5,0-0.7,0c-0.4,0.1-0.9,0.1-1.3,0.2c0,0,0,0,0,0c-0.5-0.1-1-0.1-1.6-0.2c-0.4,0-0.8,0-1.2-0.1
				C128.2,139.7,127.7,139.5,127.3,139.3z"/>
			<path fill="#CD9769" d="M185.4,94.7c0.4,0.3,0.7,0.2,0.7-0.3c0,0.4,0,0.8-0.1,1.2c-0.9,1.7-2,3.4-3,5.2c-0.1,0.2-0.3,0.2-0.5,0.4
				c0.2-0.6,0.4-1.2,0.7-1.8C184,97.7,184.7,96.2,185.4,94.7z"/>
			<path fill="#996244" d="M134.6,13.2c-0.9,0.7-1.7,1.4-2.6,2.1C132.9,14.6,133.7,13.9,134.6,13.2z"/>
			<path fill="#CD9769" d="M181.6,103.1c0.2-0.5,0.5-1,0.7-1.4C182.1,102.2,181.9,102.6,181.6,103.1z"/>
			<path fill="#E5A977" d="M128.6,139.9c0.4,0,0.8,0,1.2,0.1C129.4,140,129,139.9,128.6,139.9z"/>
			<path fill="#E5A977" d="M132.7,140c0.2,0,0.5,0,0.7,0C133.2,140,132.9,140,132.7,140z"/>
			<path fill="#E5A977" d="M133.9,140c0.1,0,0.1-0.1,0.2-0.1c0,0,0,0.1,0,0.1C134,140,133.9,140,133.9,140z"/>
			<polygon fill="#E5A977" points="131.4,140.2 131.4,140.2 131.4,140.2 			"/>
			<path fill="#996244" d="M162.9,73.5c-0.1,0.1-1.1-1-1.2-0.9c-1.3,0.1-2.4-0.7-3.3-1.2c0.6-1.6,1.1-5.9-0.5-7.4
				c0-0.9,0.2-1.7,1-2.1c0.4,0.3,0.8,0.6,1.2,1c0.3,0.3,0.4,0.8,0.5,1c2.1-1,4.1-1.9,6.1-2.9c0.8-0.4,1.6-0.7,2.4-1
				c0.1-0.1,0.6,0.3,0.6,0.4c0,0.4-0.2,1.1-0.4,1.1c-2.2,0.2-3.3,2.1-5,3.1c-1.7,1-2.4,4-1.6,5.9C162.8,70.9,162.8,73.1,162.9,73.5z
				"/>
			<path fill="#CD9769" d="M115.6,125c-0.5,0-1,0.1-1.5,0c-0.8-0.2-1.3-0.4-1.7,0.7c-0.4,1.1-1.2,2.1-1.8,3.2
				c-1.2-0.4-1.7-1.4-1.9-2.6c-0.2-1.1-1.3-1.4-2.7-0.6c0.1-0.6,0.3-1.1,0.2-1.6c-0.2-0.5-0.7-0.9-1-1.4c-1.4-2.6-1.3-5.6-1.9-8.3
				c-0.2-0.9-0.9-1.8-1.5-2.6c-0.1-0.2-1.1,0-1.3,0.3c-1.1,2-2.1,4-3,6.1c-0.6,1.4-1.5,2.3-2.6,3.1c-0.4,0.3-0.7,0.8-1.2,1.2
				c-0.7,0.6-1.5,1.2-2.3,1.8c-0.1,0.1-0.5,0.1-0.5,0.2c-0.4,2-2.2,2.5-3.5,3.6c0,0-0.1,0.1-0.1,0.1c-0.4,0.3-0.9,0.6-1.3,0.8
				c-0.3-0.6-0.6-1.2-0.9-1.9l0,0c0.4-0.2,1-0.4,1.3-0.7c1-1,2.4-2,2.8-3.3c0.4-1.5,1-2.8,1.5-4.2c0.3-0.8,0.9-1.6,1.2-2.4
				c0.2-0.6,0.2-1.3,0.1-1.8c-0.1-0.2-0.8-0.4-1.2-0.4c-2.6-0.1-5.1-0.9-7-2.6c-1.6-1.4-2.9-3.3-4.4-4.9c-0.7-0.8-1.5-1.7-2.3-2.5
				c-0.9-0.9-1.3-2.1-1-3.3c0.3-1.2-0.2-2-0.7-2.8c-0.2-0.4-0.3-0.8-0.5-1.2c0.3,0.1,0.6,0.2,0.8,0.4c1.9,1.1,3.6,2.4,5.6,3.3
				c1.6,0.8,3.4,1.2,5.2,1.5c2.1,0.4,4.2,0.7,6.3,1c1.8,0.3,3.7,0.6,5.5,0.8c2.7,0.2,5.4,0.5,8.1,0.5c0.9,0,1.2,0.3,1.5,0.9
				c0.2,0.6,0.3,1.2,0.5,1.8c0.3,0.8,0.6,1.5,0.9,2.3c0.4,1.6,0.7,3.1,1.2,4.7c0.4,1.4,1.1,2.7,1.5,4c0.4,1.4,0.7,2.9,1.8,4
				C114.7,123.1,115.1,124.1,115.6,125z"/>
			<path fill="#996244" d="M86.3,69.9c-0.2,0.3-0.4,0.7-0.7,0.8c-0.3,0.2-0.7,0.1-1.1,0.1c0-0.4-0.1-0.7,0-1.1
				c0.1-0.3,0.3-0.5,0.4-0.8c0.9-2.3,0.9-2.3-0.9-4.1c-0.6-0.6-1.2-1.1-1.1-1.9c1.2,0.1,2.2,0.2,3.3,0.1c0.9,0,1.5-0.6,1.9-1.5
				c1.2-2.4,1.6-5,1.1-7.8c0.3,0,0.6,0,0.9,0c0.2,0.3,0.4,0.6,0.7,0.9c0,0.3,0.1,0.6,0.1,1c0.1,0.6,0,1.3,0.3,1.9
				c0.5,1.2,1.2,2.4,1.8,3.6c0,0.1,0.1,0.1,0.1,0.2c-0.2,1.2-0.1,2.2,1,2.9c0,0.2,0.1,0.5,0.1,0.7c-0.1,0.1-0.2,0.1-0.3,0.2
				c-0.2-0.1-0.5-0.2-0.7-0.4c-2.7-1.7-5.1-0.8-6.1,2C86.4,67.7,86.2,68.7,86.3,69.9z"/>
			<path fill="#CD9769" d="M86.3,69.9c-0.1-1.1,0.1-2.1,0.9-2.9c0.9,1.1,1.5,1.1,2.1-0.2c0.5-1.2,1.6-0.8,2.3-0.7
				c0.5,0.1,1.2,0.8,1.4,1.3c0.5,1.7,0.5,1.8,2.1,1.8c0.2,0.4,0.5,0.8,0.7,1.2c-0.1,0.1-0.2,0.1-0.2,0.2c-0.2,0-0.4-0.1-0.5-0.1
				c0,0-0.1-0.1-0.1-0.1l-0.1,0c-0.3-0.1-0.5-0.3-0.8-0.4c-0.3,0-0.6,0-0.8,0c-0.4,0.3-0.8,0.6-1.1,0.9c-0.3,0.2-0.5,0.4-0.8,0.5
				c-0.1,0-0.1,0.1-0.2,0.1c-0.2,0.2-0.4,0.4-0.5,0.5c-1.8,1.1-3.5,2.1-5.3,3.2c-0.2,0.1-0.4,0.3-0.5,0.4c0.5-1.7,1-3.3,1.4-5
				C86.4,70.4,86.3,70.1,86.3,69.9z"/>
			<path fill="#996244" d="M91,54.7c-0.2-0.3-0.4-0.6-0.7-0.9c-0.3-1.4-0.2-2.7,0.4-4c0.2-0.6,0.3-1.4,0-2c-0.6-1.4-0.4-2.7,0-4.1
				c0.3-1,0.2-2.2,0.3-3.3c0.2-0.7,0.5-1.4,0.7-2.1c0.4-1.9,0.8-3.9,1.1-5.8c0.2,0,0.6,0.1,1,0.2c0,0,0,0.1,0,0.1
				c-0.4,1.1-1,2.1-1.2,3.2c-0.5,2.9-0.9,5.7-1.2,8.6C91.2,48,91.1,51.4,91,54.7z"/>
			<path fill="#CD9769" d="M85.4,127.2C84.5,126.8,85.1,126.5,85.4,127.2C85.4,127.2,85.4,127.2,85.4,127.2z"/>
			<path fill="#CD9769" d="M74.9,96.6c0.1,0.2,0.2,0.3,0.2,0.5C75,96.9,74.9,96.8,74.9,96.6z"/>
			<path fill="#996244" d="M144.4,101.4c0.9-0.4,1.6,0.2,2.3,0.6c0.9,0.6,2,0.8,3,1.2c0.2,0.1,0.4,0.3,0.6,0.5
				c-1.8-0.2-3.5-0.8-4.9-2.1c-0.3,0.1-0.7,0.3-1,0.4C144.4,101.9,144.4,101.7,144.4,101.4z"/>
			<path fill="#996244" d="M139.9,115.4c0.2-0.7,0.5-1.5,0.7-2.2c-0.1,0.6-0.1,1.2-0.2,1.7C140.4,115.1,140.1,115.2,139.9,115.4z"/>
			<path fill="#996244" d="M141.1,112.5c0.1-0.2,0.1-0.3,0.2-0.5C141.3,112.2,141.2,112.3,141.1,112.5z"/>
			<path fill="#996244" d="M160.4,38.5c0-0.3-0.1-0.7-0.1-1c0.2,0,0.3,0.1,0.5,0.1C160.7,37.8,160.5,38.2,160.4,38.5z"/>
			<path fill="#CD9769" d="M111.1,33.8c0.7-1.1,1.5-1.3,2.5-0.5c0.8,0.7,1.5,0.4,2.3,0.1c0.3-0.1,0.4-0.7,0.6-1
				c-0.3-0.2-0.7-0.5-1-0.5c-1.2,0-2.3,0.1-3.5,0.2c-1.9,0.2-3.3-0.7-4.7-1.7c-2.4-1.7-4-4-5.1-6.8c-0.8-1.9-0.8-3.8-0.8-5.7
				c0.9,0.2,0.9-0.6,1.1-1.1c1.1-2.8,3.5-4.3,6.1-2c1,0.9,2.5,1.1,3.7,1.7c0,0,0,0,0,0c0.2,0.1,0.3,0.2,0.5,0.2
				c1.3,0.5,1.2,2,1.7,2.9c0.8,1.5,1.3,3.2,2.1,4.8c0.7,1.5,0.7,3.3,2.2,4.3c0.4,0.3,0.8,0.5,1.3,0.9c0.2-1.3-0.4-2.1-0.9-3
				c-1.1-2-2-4.2-2.9-6.3c0.2-0.6,0.7-1.1,0.7-1.7c0.1-1.4-0.1-2.8,1.3-3.8c0.2-0.1,0.3-0.4,0.4-0.6c0.4-1.1,1.2-1.5,2.3-1.4
				c1.6,0.1,3.2,0.3,4.8,0.5c1.7,0.7,3.3,1.3,4.2,3.2c0.7,1.5,1.6,3,2.4,4.5c0.1,0.4,0.2,0.8,0.2,1.2c0,0.6,0,1.3-0.3,1.7
				c-0.8,0.8-0.9,1.8-0.8,2.9c0,0.3,0.2,0.7,0.3,0.8c0.4,0,1.1,0,1.1-0.2c0.3-0.9,1.1-0.8,1.8-1.1c0.3-0.1,0.5-0.4,0.8-0.5
				c0.6,0.7,1.4,1.3,1.9,2.2c1.1,1.9,2,3.9,3,5.8c0.2,0.5,0.3,1,0.5,1.5c-1.7,0.6-3.4,1.3-5.2,1.9c-0.1,0.1-0.3,0.1-0.4,0.3
				c-0.8,0.8-1.5,1.6-2.3,2.4c-0.4,0.3-0.8,0.6-1.2,0.9c-0.3,0.2-0.7,0.5-1,0.8c-0.6-0.7-1.1-1.4-1.8-2.1c-1.1-1.2-2.2-2.4-3.2-3.5
				c-0.1,0.1-0.2,0.2-0.3,0.3c0.7,0.9,1.3,2,2.1,2.8c1.1,1.1,1.4,2.3,1.2,3.8c-0.4,0.5-1,0.9-1.3,1.4c-0.5,0.9-1,1-1.8,0.2
				c-1.1-1.2-2.3-2.4-3.5-3.4c-1.3-1.1-2.8-2.1-4.3-2.9c-1.8-1-3.6-2-5.5-2.7C111.4,34.8,111.1,34.6,111.1,33.8z M124.5,34.9
				c0.1,0,0.2-0.1,0.2-0.1c-0.1-0.4-0.2-0.8-0.4-1.4c1.6-0.1,3.1-0.2,4.6-0.3c0.3,0,0.6-0.4,0.9-0.6c-0.4-0.2-0.7-0.5-1.1-0.7
				c-0.2-0.1-0.5,0.1-0.8,0.1c-2,0-4.1,0.2-5.9-1.1c-0.3-0.2-0.8,0-1.2,0c0,0.3,0,0.7,0.2,0.9C122.1,32.8,123.3,33.8,124.5,34.9z"/>
			<path fill="#E5A977" d="M136.4,23.7c-0.6-0.4-1.2-0.8-1.2-1.7c0-0.2-0.1-0.5-0.3-0.6c-0.8-1.1-1.7-2.3-2.6-3.6
				c0.6-0.5,1.1-0.9,1.5-1.3c1-0.8,2.1-1.7,3.2-2.4c1.4-0.9,2.9-1.7,4.4-2.4c1.8-0.8,3.4,0.1,4.8,1.3c0.4,0.4,0.4,1.3,0.5,2
				c-0.2-0.2-0.5-0.4-0.9-0.7c-0.1,0.3-0.2,0.6-0.3,0.9c-0.4,0.7-0.7,1.5-1.2,2.1c-0.5,0.7-1.2,1.3-1.8,2
				C141,21.3,139.2,23.2,136.4,23.7z"/>
			<path fill="#CD9769" d="M100,32.3c-0.2,0-0.4,0-0.5,0c-0.4-0.1-0.8-0.1-1.2-0.2c-0.5,0-0.9,0-1.4,0c-0.9-1.6-1.8-3.2-2.7-4.7
				c-0.3-0.6-0.6-1.2-1-1.8c-0.7-1-0.7-2-0.3-3.1c0.9-0.2,1.8-0.4,2.7-0.6c1.1-0.2,2.9,0.4,3.3,1.2c0.4,0.8,0.7,1.6,1.1,2.3
				c0.4,0.7,0.5,1.9,1.8,1.7c0.2,0.4,0.5,0.8,0.7,1.2c0.1,0.3,0.1,0.7,0.2,1c0.5,0.9,1,1.7,1.6,2.6c0,0,0.3,0,0.6,0
				c0.2,0.3,0.3,0.6,0.5,0.9c-1,0.1-1.9,0.1-2.5,1.2c-0.1,0.1-0.7,0.2-0.9,0c-0.5-0.4-1-1-1.4-1.5c-0.1-0.1-0.1-0.1-0.2-0.2
				c-0.1,0-0.2-0.1-0.3-0.1C100.1,32.3,100,32.3,100,32.3z"/>
			<path fill="#CD9769" d="M147.2,33.5c-0.4,0.1-0.8,0.1-1.2,0.2c-0.1-0.3-0.2-0.7-0.2-0.9c0.6-0.3,1-0.4,1.5-0.7
				c1.4-0.9,2.7-1.9,4-2.7c2.3-1.4,4.9-1.7,7.6-1.7c0.7,0,1.4-0.3,2.1-0.5c0,1.2,0.2,2.4-0.1,3.4c-0.4,1.4-0.9,2.8-2.3,3.6
				c-0.1,0-0.2,0-0.3,0.1c0,0,0,0,0,0c-0.2-0.6-0.5-1.1-0.6-1.7c-0.2-0.9-0.9-1-1.6-0.9c-2.2,0.2-4.3,0.4-6.5,0.7
				C148.8,32.5,148.1,33.1,147.2,33.5z"/>
			<path fill="#E5A977" d="M125.7,13.3c-1.6-0.2-3.2-0.3-4.8-0.5c-1.1-0.1-1.9,0.3-2.3,1.4c-0.1,0.2-0.2,0.5-0.4,0.6
				c-1.3,0.9-1.2,2.3-1.3,3.8c0,0.6-0.4,1.1-0.7,1.7c-0.8-1-1.5-2.1-1-3.5c0.1-0.2,0.1-0.4,0-0.6c-0.9-1.4-0.1-2.8,0.2-4.1
				c0.1-0.3,0.2-0.6,0.3-0.9c0.1-1.1,0.7-1.7,1.7-2C120.6,8.1,124.6,10.2,125.7,13.3z"/>
			<path fill="#CD9769" d="M141.1,31.2c-0.7-1.3-1.4-2.6-2.1-3.9c2.5-1.1,4.5-2.5,6.1-4.5c0.5-0.6,0.8-0.6,1.5-0.4
				c1.4,0.3,2.4,1.1,3.3,2.1c0.7,0.9,0.4,2-0.6,2.2c-2.8,0.7-5.4,1.9-7.5,4.1C141.6,31,141.4,31,141.1,31.2z"/>
			<path fill="#E5A977" d="M112.3,16.4c-1.3-0.5-2.8-0.8-3.7-1.7c-2.6-2.3-5-0.8-6.1,2c-0.2,0.5-0.2,1.3-1.1,1.1
				c0.2-1.8,0.5-3.6,0.7-5.4c0-0.2,0.1-0.4,0.1-0.6c0.2-2,2.2-3,3.8-1.7c2,1.6,4,3.4,5.9,5.2C112.1,15.6,112.2,16.1,112.3,16.4z"/>
			<path fill="#E5A977" d="M161,27.2c-0.7,0.2-1.4,0.5-2.1,0.5c-2.7,0-5.3,0.3-7.6,1.7c-1.4,0.8-2.7,1.8-4,2.7
				c-0.4,0.3-0.9,0.4-1.5,0.7c0.1,0.3,0.1,0.6,0.2,0.9c-0.8,0.2-1.5,0.5-2.3,0.7c-0.2-0.9,0.1-1.5,0.7-2.1c1.6-1.5,3.3-2.9,5.2-3.9
				c2.3-1.2,4.7-2.4,7.3-2.5C158.4,26,160.1,25.5,161,27.2z"/>
			<path fill="#E5A977" d="M101.8,27c-1.3,0.2-1.4-1-1.8-1.7c-0.5-0.7-0.7-1.6-1.1-2.3c-0.4-0.8-2.2-1.4-3.3-1.2
				c-0.9,0.2-1.8,0.4-2.7,0.6c0-2.3,0.6-3.5,2.1-4c1.8-0.6,3.4,0,4.8,1.2c0.1,0.1,0.1,0.2,0.1,0.3c0.6,2.2,1.2,4.3,1.8,6.5
				C101.8,26.7,101.8,26.8,101.8,27z"/>
			<path fill="#996244" d="M111.1,33.8c0,0.8,0.3,1,1,1.2c1.9,0.7,3.7,1.7,5.5,2.7c1.5,0.9,2.9,1.8,4.3,2.9c1.3,1,2.4,2.2,3.5,3.4
				c0.8,0.8,1.2,0.7,1.8-0.2c0.3-0.5,0.8-1,1.3-1.4c1.6,0.5,1.9,0.3,2.1-1.2c0.3-0.3,0.7-0.5,1-0.8c0.4-0.3,0.9-0.6,1.2-0.9
				c0.8-0.8,1.6-1.6,2.3-2.4c0.1-0.1,0.2-0.2,0.4-0.3c1.7-0.6,3.4-1.3,5.2-1.9c0.5-0.2,1-0.4,1.5-0.5c0.4-0.1,0.9,0,1.3,0
				c-2.2,1-4.5,1.8-6.6,2.9c-2,1.1-3.7,2.6-5.5,4c-0.5,0.4-0.7,1.5-1.1,1.5c-1.6,0.1-2.1,1.4-2.9,2.4c-0.2,0.3-0.7,0.4-1.1,0.6
				c-1.6-1.6-3.1-3.2-4.7-4.7c-0.4-0.4-1-0.5-1.5-0.7c-0.7-0.6-1.3-1.3-2.1-1.8c-2.6-1.5-5.3-2.8-8-4.2c0-0.2,0.1-0.4,0.1-0.6
				C110.3,33.8,110.7,33.8,111.1,33.8z"/>
			<path fill="#CD9769" d="M136.4,23.7c2.8-0.4,4.5-2.3,6.2-4.4c0.5-0.7,1.3-1.3,1.8-2c0.5-0.6,0.8-1.4,1.2-2.1
				c0.1-0.2,0.2-0.5,0.3-0.9c0.4,0.3,0.6,0.5,0.9,0.7c-0.3,2.2-1.2,4-2.9,5.4c-0.4,0.3-0.7,0.9-1.1,1.2c-1.1,1.1-2.1,2.3-3.3,3.2
				C138.1,25.9,137.3,25.5,136.4,23.7z"/>
			<path fill="#E5A977" d="M135.3,25.5c-0.3,0.2-0.5,0.4-0.8,0.5c-0.7,0.2-1.4,0.2-1.8,1.1c-0.1,0.2-0.7,0.3-1.1,0.2
				c-0.1,0-0.3-0.5-0.3-0.8c-0.1-1,0-2,0.8-2.9c0.3-0.3,0.3-1.1,0.3-1.7c0-0.4-0.1-0.8-0.2-1.2c0.4,0.4,0.9,0.8,1.2,1.2
				C134.1,23.3,134.7,24.4,135.3,25.5z"/>
			<path fill="#996244" d="M110,33.8c0,0.2-0.1,0.4-0.1,0.6c-0.6-0.1-1.2-0.1-1.8-0.2c-0.2-0.5-0.5-0.9-0.7-1.6
				C108.6,32.4,109.2,33.3,110,33.8z"/>
			<path fill="#E5A977" d="M104.8,31.8c-0.3,0-0.5,0-0.6,0c-0.6-0.9-1.1-1.8-1.6-2.6c-0.2-0.3-0.1-0.7-0.2-1
				c0.5,0.5,1.1,0.8,1.4,1.4C104.3,30.3,104.5,31.1,104.8,31.8z"/>
			<path fill="#996244" d="M158.4,34.3c0.1,0,0.2,0,0.3-0.1c0.8,0.9,1.5,1.8,1.6,3.2C159.6,36.4,159,35.3,158.4,34.3z"/>
			<path fill="#E5A977" d="M112.8,16.6c-0.2-0.1-0.3-0.2-0.5-0.2C112.5,16.5,112.6,16.6,112.8,16.6z"/>
			<path fill="#996244" d="M123.7,133.3c0.3,0.2,0.6,0.5,1,0.7C124.4,133.7,124.1,133.5,123.7,133.3z"/>
			<path fill="#CD9769" d="M161.7,47c-0.1-1.2-0.2-2.4-0.3-3.6c1-0.3,2-0.7,3-1c1.2-0.4,2.3,0.2,3.1,1.4c0.6,1,0.4,4.3-0.3,5.3
				c-0.9-0.5-1.9-1.1-2.8-1.5c-0.5-0.2-0.9-0.4-1.4-0.6C162.5,47,162.1,47,161.7,47z"/>
			<path fill="#CD9769" d="M162.9,47c0.5,0.2,1,0.4,1.4,0.6c0.9,0.5,1.9,1,2.8,1.5c-0.1,0.7-0.5,0.8-1,0.5
				C165.1,48.8,164,47.9,162.9,47z"/>
			<path fill="#E5A977" d="M109.8,80.5c0-0.2,0-0.3,0-0.5c0-0.1,0-0.3,0-0.4c0-0.2,0-0.3,0-0.5c0.1,0,0.3-0.1,0.3-0.1
				c0.8-1.8,0.7-3.8,2-5.4c0,0,0-0.1,0-0.1c0.4-1.6,0.3-3.5,1.5-4.9c0.2-0.2,0.2-0.5,0.2-0.8c-0.1-1.1,0.6-1.8,1.3-2.4
				c0.4-0.3,0.8-0.5,1.1-0.9c2.3-2.2,4.9-2.8,7.9-2.3c1.1,0.2,2.3,0.5,3.3,0.2c3.7-1,6.8-0.1,9.6,2.3c0.9,0.8,1.6,1.7,2.2,2.7
				c0.6,1,1,2.2,1.5,3.3c0.1,0.3,0.1,0.6,0.2,0.9c-0.4,0.8-0.2,1.6,0.3,2.3c0.4,0.5,0.6,1.2,0.9,1.8c1,2,1.1,4.2,0.7,6.4
				c-0.6,3.2-2.3,5.6-5.1,7.2c-1.2,0.7-2.2,1.5-3.3,2.4c-0.6,0.5-1.1,1.3-1.8,1.7c-1.9,1.1-3.8,2.2-6.1,1.9c-0.7-0.1-1.5,0-2.2,0
				c-0.1,0-0.3,0-0.4,0c-0.3-0.2-0.6-0.4-1-0.5c-1.6-0.5-3-1.4-4.1-2.6c-0.4-0.4-0.6-1-1-1.4c-0.8-0.6-1.7-1-2.5-1.6
				c-1.9-1.3-3.1-3.2-4.3-5c-0.1-0.2-0.2-0.6-0.2-0.8C111,82.1,110.5,81.2,109.8,80.5z M119.6,71.5c0,0-0.1,0.1-0.1,0.1
				c-0.1,0.1-0.2,0.3-0.4,0.4c-0.1,0.2-0.3,0.3-0.4,0.5c-0.1,0.2-0.2,0.3-0.3,0.5c-0.1,0.3-0.2,0.5-0.4,0.8
				c-0.1,0.4-0.3,0.8-0.4,1.2c0,0.1,0,0.3-0.1,0.4c-0.7,0.9-0.8,1.9-0.4,2.9c0,0.2,0,0.3,0.1,0.5c0.1,0.2,0.2,0.5,0.3,0.7
				c0,0.2,0,0.3,0.1,0.5c-0.1,1.3,0.4,2.3,1.4,3.2c0.2,0.3,0.4,0.5,0.5,0.8c0.6,0.5,1.2,1,1.9,1.6c0.1,0,0.2,0.1,0.3,0.1
				c0,0.1,0.1,0.1,0.1,0.1c0,0,0.1,0.1,0.1,0.1c0.3,0.2,0.6,0.5,0.9,0.7c3,1.2,6,1,8.7-0.9c1-0.7,2.1-1.4,3-2.2
				c0.8-0.8,1.6-1.7,1-3.1c-0.1-0.2-0.1-0.6,0-0.8c0.7-3.7-0.5-6.7-3.1-9.2c-0.4-0.4-0.9-0.5-1.4-0.8c-4.1-1.8-7.9-1.5-11.3,1.7
				C119.7,71.2,119.7,71.4,119.6,71.5z"/>
			<path fill="#996244" d="M119.8,61.2c0.2,0.1,0.4,0.1,0.7,0.2c1.7,0,3.4,0.1,5.1,0.1c0.2,0,0.5,0.1,0.7,0c2-0.9,4-0.1,6-0.3
				c1.3-0.1,2.7,1,4.1,1.6c0.7,0.3,1.4,0.6,1.9,1.2c0.6,0.7,0.9,1.6,1.4,2.4c0.2,0.4,0.5,0.9,0.8,1.2c0.8,1,0.4,2,0.3,3
				c-0.5-1.1-0.9-2.3-1.5-3.3c-0.6-1-1.3-2-2.2-2.7c-2.8-2.5-6-3.3-9.6-2.3c-1,0.3-2.2,0-3.3-0.2c-3-0.5-5.7,0.2-7.9,2.3
				c-0.3,0.3-0.8,0.6-1.1,0.9c-0.7,0.6-1.4,1.3-1.3,2.4c0,0.3,0,0.6-0.2,0.8c-1.2,1.4-1,3.2-1.5,4.9c0,0,0,0.1,0,0.1
				c-1.3,1.6-1.2,3.6-2,5.4c0,0.1-0.2,0.1-0.3,0.1c0.4-1.7,0.8-3.4,1.3-5.1c0.4-1.4,0.8-2.8,1.3-4.2c0.5-1.5,1-3,1.5-4.5
				c0.1-0.2,0.2-0.4,0.4-0.6c1.6-1.1,3.2-2.3,4.9-3.4C119.3,61.1,119.6,61.2,119.8,61.2z"/>
			<path fill="#996244" d="M124.3,95.2c0.7,0,1.5-0.1,2.2,0c2.3,0.3,4.2-0.8,6.1-1.9c0.7-0.4,1.1-1.2,1.8-1.7
				c1.1-0.8,2.1-1.7,3.3-2.4c2.7-1.6,4.4-4,5.1-7.2c0.4-2.2,0.4-4.4-0.7-6.4c-0.3-0.6-0.6-1.2-0.9-1.8c-0.5-0.7-0.7-1.5-0.3-2.3
				c0.7,1.7,1.6,3.4,2.2,5.2c0.7,2.3,0.5,4.7-0.1,7c-0.2,0.8-0.9,1.5-1.2,2.3c-0.3,0.5-0.4,1.1-0.6,1.7c-0.2,0.2-0.3,0.3-0.5,0.5
				c-1.6,1-3.3,2-4.9,3c-0.7,0.5-1.3,1.2-1.9,1.8c-2.1,2.1-4.7,3.2-7.6,3.1C125.5,96,124.9,95.5,124.3,95.2z"/>
			<path fill="#996244" d="M147.2,33.5c0.8-0.4,1.6-1,2.5-1.2c2.1-0.4,4.3-0.5,6.5-0.7c0.8-0.1,1.4,0,1.6,0.9
				c0.2,0.6,0.4,1.2,0.6,1.7c-0.1-0.1-0.3-0.1-0.4-0.2c-0.5-1.5-1.5-1.8-3-1.5c-2.3,0.5-4.6,0.7-7,1
				C147.8,33.6,147.5,33.5,147.2,33.5z"/>
			<path fill="#E5A977" d="M95.2,69.1c-1.7,0-1.7-0.1-2.1-1.8c-0.2-0.5-0.8-1.2-1.4-1.3c-0.8-0.1-1.8-0.5-2.3,0.7
				c-0.6,1.3-1.2,1.3-2.1,0.2c1-2.8,3.4-3.7,6.1-2c0.2,0.1,0.5,0.2,0.7,0.4c0,0,0,0,0,0c0.1,0.2,0.2,0.4,0.2,0.5
				c0.3,0.7,0.6,1.4,0.9,2.1C95.2,68.3,95.2,68.7,95.2,69.1z"/>
			<path fill="#996244" d="M91.1,55.7c0.2,0.4,0.5,0.7,0.6,1.1c0.5,1.5,0.9,2.9,1.4,4.4c-0.6-1.2-1.3-2.4-1.8-3.6
				C91.1,57,91.1,56.3,91.1,55.7z"/>
			<path fill="#996244" d="M93.2,61.4c0.3,1,0.7,2,1,2.9C93.1,63.7,93,62.6,93.2,61.4z"/>
			<path fill="#996244" d="M94.3,65.1c0,0,0.1,0.1,0,0.1c-0.1,0-0.2,0.1-0.3,0.1c0,0,0,0,0,0C94.1,65.2,94.2,65.2,94.3,65.1z"/>
			<path fill="#996244" d="M95.2,67.9c-0.3-0.7-0.6-1.4-0.9-2.1c0.1,0,0.2,0,0.4-0.1c0.7,1.1,1.4,2.3,2.2,3.3
				c0.3,0.4,0.8,0.5,1.1,0.8c1,0.8,2,1.7,3,2.5c-0.3,0-0.6,0.1-0.9,0c-0.5-0.2-1-0.7-1.6-0.1c-0.1,0.1-0.6-0.1-0.9-0.3
				c-0.6-0.5-1.2-1-1.8-1.5c0.1-0.1,0.2-0.1,0.2-0.2c0.3,0.1,0.7,0.2,1,0.2c0.1-0.1,0.1-0.2,0.2-0.2C96.5,69.5,95.9,68.7,95.2,67.9z
				"/>
			<path fill="#996244" d="M95.2,67.9c0.6,0.8,1.3,1.6,1.9,2.5c-0.1,0.1-0.1,0.2-0.2,0.2c-0.3-0.1-0.7-0.2-1-0.2
				c-0.2-0.4-0.5-0.8-0.7-1.2C95.2,68.7,95.2,68.3,95.2,67.9z"/>
			<path fill="#996244" d="M93.4,69.9c-0.4,0.3-0.8,0.6-1.1,0.9C92.6,70.5,93,70.2,93.4,69.9z"/>
			<path fill="#996244" d="M95,70.3c-0.3-0.1-0.5-0.3-0.8-0.4C94.4,70.1,94.7,70.2,95,70.3z"/>
			<path fill="#996244" d="M95.2,70.4L95.2,70.4c-0.1,0-0.1-0.1-0.1-0.1C95.1,70.4,95.1,70.4,95.2,70.4z"/>
			<path fill="#996244" d="M91.4,71.4c-0.1,0-0.1,0.1-0.2,0.1C91.3,71.4,91.4,71.4,91.4,71.4z"/>
			<path fill="#996244" d="M121.5,95.3c0,0,0-0.1,0-0.1c-0.7-0.6-1.4-1.1-2.2-1.7c-0.5-0.4-0.9-0.9-1.4-1.3
				c-0.7-0.7-1.3-1.5-2.1-1.9c-1.8-1.1-3.1-2.5-4.5-4c-1.5-1.8-1.3-3.7-1.7-5.7c0.8,0.8,1.2,1.6,0.9,2.8c-0.1,0.2,0,0.6,0.2,0.8
				c1.3,1.8,2.5,3.8,4.3,5c0.8,0.6,1.7,1,2.5,1.6c0.4,0.3,0.7,1,1,1.4c1.1,1.3,2.5,2.1,4.1,2.6c0.4,0.1,0.7,0.4,1,0.5
				C123.1,95.2,122.3,95.3,121.5,95.3z"/>
			<path fill="#996244" d="M98.2,32.1c0.4,0.1,0.8,0.1,1.2,0.2C99,32.2,98.6,32.2,98.2,32.1z"/>
			<path fill="#996244" d="M83.8,80.5C83.8,80.5,83.8,80.6,83.8,80.5c-0.1,0-0.1,0-0.2,0c0.1,0,0.1,0,0.2-0.1
				C83.8,80.4,83.8,80.5,83.8,80.5z"/>
			<path fill="#996244" d="M94.7,65.8c-0.1,0-0.2,0-0.4,0.1c-0.1-0.2-0.2-0.4-0.2-0.5c0.1,0,0.2-0.1,0.3-0.1
				C94.4,65.4,94.6,65.6,94.7,65.8z"/>
			<path fill="#996244" d="M109.7,79.5c0,0.1,0,0.3,0,0.4C109.7,79.8,109.7,79.7,109.7,79.5z"/>
			<path fill="#996244" d="M100,32.3c0.1,0,0.1,0,0.2,0C100.1,32.3,100,32.3,100,32.3L100,32.3z"/>
			<path fill="#996244" d="M100.4,32.4c0.1,0.1,0.1,0.1,0.2,0.2C100.5,32.5,100.5,32.4,100.4,32.4z"/>
			<path fill="#996244" d="M124.5,34.9c-1.2-1.1-2.3-2.1-3.5-3.3c-0.2-0.2-0.1-0.6-0.2-0.9c0.4,0,0.9-0.2,1.2,0
				c1.8,1.3,3.9,1.1,5.9,1.1c0.3,0,0.6-0.2,0.8-0.1c0.4,0.2,0.8,0.4,1.1,0.7c-0.3,0.2-0.6,0.6-0.9,0.6c-1.5,0.2-3,0.2-4.6,0.3
				c0.2,0.7,0.3,1.1,0.4,1.4C124.6,34.8,124.6,34.9,124.5,34.9z"/>
			<path fill="#996244" d="M130.6,41.2c-0.2,1.5-0.5,1.7-2.1,1.2c0.2-1.5-0.1-2.7-1.2-3.8c-0.8-0.8-1.4-1.8-2.1-2.8
				c0.1-0.1,0.2-0.2,0.3-0.3c1.1,1.2,2.2,2.3,3.2,3.5C129.4,39.8,130,40.5,130.6,41.2z"/>
			<path fill="#996244" d="M119.8,71.1c3.4-3.1,7.2-3.4,11.3-1.7c0.2,0.2,0.4,0.5,0.6,0.7c2,1.6,3.3,3.7,3.6,6.2
				c0.9,6.3-5,11.6-10.6,10.2c-0.9-0.2-1.8-0.5-2.7-0.7c0,0-0.1-0.1-0.1-0.1c0,0,0-0.1,0-0.1l-0.1,0c-0.1,0-0.2-0.1-0.3-0.1
				c-0.6-0.5-1.2-1-1.9-1.6c-0.2-0.3-0.4-0.5-0.5-0.8c-0.5-1.1-0.9-2.1-1.4-3.2c0-0.2,0-0.3-0.1-0.5c-0.1-0.2-0.2-0.5-0.3-0.7
				c0-0.2,0-0.3-0.1-0.5c0.1-1,0.2-1.9,0.4-2.9c0-0.1,0-0.3,0.1-0.4c0.1-0.4,0.3-0.8,0.4-1.2c0.1-0.3,0.2-0.5,0.4-0.8
				c0.1-0.2,0.2-0.3,0.3-0.5c0.1-0.2,0.3-0.3,0.4-0.5c0.1-0.1,0.2-0.3,0.4-0.4c0,0,0-0.1,0.1-0.1C119.7,71.4,119.7,71.2,119.8,71.1z
				"/>
			<path fill="#CD9769" d="M122,85.8c0.9,0.2,1.8,0.5,2.7,0.7c5.6,1.4,11.5-3.8,10.6-10.2c-0.4-2.5-1.6-4.6-3.6-6.2
				c-0.2-0.2-0.4-0.5-0.6-0.7c0.5,0.2,1,0.4,1.4,0.8c2.6,2.5,3.8,5.5,3.1,9.2c-0.1,0.3-0.1,0.6,0,0.8c0.5,1.4-0.2,2.3-1,3.1
				c-0.9,0.9-1.9,1.5-3,2.2c-2.7,1.9-5.7,2.1-8.7,0.9C122.6,86.4,122.3,86,122,85.8z"/>
			<path fill="#CD9769" d="M117.7,80c0.5,1.1,0.9,2.1,1.4,3.2C118.1,82.3,117.5,81.3,117.7,80z"/>
			<path fill="#CD9769" d="M117.6,75.4c-0.1,1-0.2,1.9-0.4,2.9C116.8,77.3,116.9,76.3,117.6,75.4z"/>
			<path fill="#CD9769" d="M119.6,83.9c0.6,0.5,1.2,1,1.9,1.6C120.8,84.9,120.2,84.4,119.6,83.9z"/>
			<path fill="#CD9769" d="M118.1,73.8c-0.1,0.4-0.3,0.8-0.4,1.2C117.8,74.6,118,74.2,118.1,73.8z"/>
			<path fill="#CD9769" d="M117.3,78.8c0.1,0.2,0.2,0.5,0.3,0.7C117.5,79.3,117.4,79,117.3,78.8z"/>
			<path fill="#CD9769" d="M119.5,71.6c-0.1,0.1-0.2,0.3-0.4,0.4C119.3,71.9,119.4,71.7,119.5,71.6z"/>
			<path fill="#CD9769" d="M118.8,72.5c-0.1,0.2-0.2,0.3-0.3,0.5C118.6,72.8,118.7,72.7,118.8,72.5z"/>
			<path fill="#CD9769" d="M119.8,71.1c0,0.1-0.1,0.2-0.1,0.4C119.7,71.4,119.7,71.2,119.8,71.1z"/>
			<path fill="#CD9769" d="M121.7,85.6l0.1,0c0,0,0,0.1,0,0.1C121.8,85.7,121.7,85.7,121.7,85.6z"/>
		</g>
	</g>
	<path id="All" fill="#46A2D0" d="M106.2,103.1L106.2,103.1c0.3,18.9,18.3,30.9,18.3,30.9s18.1-12,18.3-30.9l0,0
		c18,5.5,35-7.9,35-7.9s-5.8-20.9-23.7-27l0,0c10.8-15.4,3.3-35.7,3.3-35.7s-21.7-0.9-33,14.2l0,0c-11.3-15.1-33-14.2-33-14.2
		S84,52.9,94.9,68.3l0,0c-17.8,6.1-23.7,27-23.7,27S88.2,108.7,106.2,103.1z"/>
	<path fill="#215B6D" d="M158.2,60.3c-5,4.4-13.4,0.4-19.9,6.8c6.1-0.9,11.4-0.3,15.9,1.2h0l0,0C156,65.7,157.3,63,158.2,60.3z"/>
	<path fill="#215B6D" d="M86.9,72.4c6.6-0.7,11.1,7.6,20.1,6.3c-5.5-2.9-9.4-6.4-12.2-10.3l0,0l0,0C91.9,69.3,89.3,70.7,86.9,72.4z"
		/>
	<path fill="#215B6D" d="M118.2,40.5c2.7,6.1-3.7,12.9,0.3,21.1c1-6.1,3.2-11,6.1-14.8l0,0l0,0C122.6,44.2,120.5,42.2,118.2,40.5z"
		/>
	<path fill="#215B6D" d="M107.6,111.9c1.4-6.5,10.6-8.2,12.2-17.2c-4.4,4.4-9,7-13.6,8.4l0,0l0,0
		C106.2,106.3,106.8,109.2,107.6,111.9z"/>
	<path fill="#F9ED23" d="M139.1,73.1c0.1-3.5-1.5-7-4.5-9.2c-3-2.2-6.8-2.6-10.1-1.4c-3.3-1.2-7.1-0.8-10.1,1.4
		c-3.1,2.2-4.6,5.8-4.5,9.3c-2,2.7-2.7,6.3-1.6,9.8c1.1,3.4,3.8,5.9,6.9,7c1.9,3,5.3,5.1,9.2,5.1c3.8,0,7.1-1.9,9-4.8
		c3.4-1,6.2-3.5,7.3-7.1C142,79.6,141.3,75.9,139.1,73.1z"/>
	<circle id="Center_5_" fill="#876728" cx="124.5" cy="77.5" r="9.1"/>
	<polygon fill="#876728" points="194.8,77.5 159.7,138.4 89.4,138.4 54.2,77.5 44.2,77.5 84.4,147 164.7,147 204.8,77.5 	"/>
	<path fill="#215B6D" d="M151.7,104.5c-5.8-3.3-4.6-12.6-12.6-16.9c2.8,5.6,3.8,10.8,3.8,15.5l0,0l0,0
		C145.9,104.1,148.8,104.5,151.7,104.5z"/>
</g>
</svg>
